testing/pset7/sim-mpeg2.vcd
$date
	Sun Sep 25 22:06:49 2022
$end
$version
	Icarus Verilog
$end
$timescale
	1ps
$end
$scope module crcsim $end
$var wire 1 ! axiov $end
$var wire 32 " axiod [31:0] $end
$var reg 1 # axiid $end
$var reg 1 $ axiiv $end
$var reg 1 % clk $end
$var reg 64 & msg [0:63] $end
$var reg 32 ' rcrc [0:31] $end
$var reg 1 ( rst $end
$var reg 1 ) testok $end
$var integer 32 * i [31:0] $end
$scope module uut $end
$var wire 1 # axiid $end
$var wire 1 $ axiiv $end
$var wire 1 ! axiov $end
$var wire 1 % clk $end
$var wire 1 ( rst $end
$var reg 32 + axiod [31:0] $end
$var reg 32 , saxiod [31:0] $end
$var integer 32 - i [31:0] $end
$upscope $end
$scope begin CLK $end
$upscope $end
$scope begin MAIN $end
$upscope $end
$upscope $end
$enddefinitions $end
#0
$dumpvars
b100000 -
bx ,
bx +
bx *
1)
1(
bx '
b1100111000101110100010001101100110111000101111000111010111011110 &
0%
0$
0#
bx "
1!
$end
#5000
b11111011001111101110001001001001 ,
b100000 -
b11111111111111111111111111111111 "
b11111111111111111111111111111111 +
1%
#10000
0%
0(
#15000
1%
#20000
b11111111111111111111111111111110 ,
b100000 -
0%
1#
1$
b0 *
#25000
b11111111111111111111111111111100 ,
b100000 -
b11111111111111111111111111111110 "
b11111111111111111111111111111110 +
1%
#30000
0%
b1 *
#35000
b11111111111111111111111111111000 ,
b100000 -
b11111111111111111111111111111100 "
b11111111111111111111111111111100 +
1%
#40000
b11111011001111101110001001001111 ,
b100000 -
0%
0#
b10 *
#45000
b11110010101111001101100100101001 ,
b100000 -
b11111011001111101110001001001111 "
b11111011001111101110001001001111 +
1%
#50000
0%
b11 *
#55000
b11100001101110001010111111100101 ,
b100000 -
b11110010101111001101100100101001 "
b11110010101111001101100100101001 +
1%
#60000
b11100101011110011011001001010010 ,
b100000 -
0%
1#
b100 *
#65000
b11001010111100110110010010100100 ,
b100000 -
b11100101011110011011001001010010 "
b11100101011110011011001001010010 +
1%
#70000
0%
b101 *
#75000
b10010101111001101100100101001000 ,
b100000 -
b11001010111100110110010010100100 "
b11001010111100110110010010100100 +
1%
#80000
0%
b110 *
#85000
b101011110011011001001010010000 ,
b100000 -
b10010101111001101100100101001000 "
b10010101111001101100100101001000 +
1%
#90000
b101111000011001000111100100111 ,
b100000 -
0%
0#
b111 *
#95000
b1011110000110010001111001001110 ,
b100000 -
b101111000011001000111100100111 "
b101111000011001000111100100111 +
1%
#100000
0%
b1000 *
#105000
b10111100001100100011110010011100 ,
b100000 -
b1011110000110010001111001001110 "
b1011110000110010001111001001110 +
1%
#110000
0%
b1001 *
#115000
b1111100101001010110010010001111 ,
b100000 -
b10111100001100100011110010011100 "
b10111100001100100011110010011100 +
1%
#120000
b1111000011001000111100100111000 ,
b100000 -
0%
1#
b1010 *
#125000
b11110100000010011110111111000111 ,
b100000 -
b1111000011001000111100100111000 "
b1111000011001000111100100111000 +
1%
#130000
b11110000110010001111001001110000 ,
b100000 -
0%
0#
b1011 *
#135000
b11100101010100001111100101010111 ,
b100000 -
b11110000110010001111001001110000 "
b11110000110010001111001001110000 +
1%
#140000
b11100001100100011110010011100000 ,
b100000 -
0%
1#
b1100 *
#145000
b11000011001000111100100111000000 ,
b100000 -
b11100001100100011110010011100000 "
b11100001100100011110010011100000 +
1%
#150000
0%
b1101 *
#155000
b10000110010001111001001110000000 ,
b100000 -
b11000011001000111100100111000000 "
b11000011001000111100100111000000 +
1%
#160000
0%
b1110 *
#165000
b1100100011110010011100000000 ,
b100000 -
b10000110010001111001001110000000 "
b10000110010001111001001110000000 +
1%
#170000
b1000010011100011101010110111 ,
b100000 -
0%
0#
b1111 *
#175000
b10000100111000111010101101110 ,
b100000 -
b1000010011100011101010110111 "
b1000010011100011101010110111 +
1%
#180000
b10100010111010110100011011001 ,
b100000 -
0%
1#
b10000 *
#185000
b101100011110111100110000000101 ,
b100000 -
b10100010111010110100011011001 "
b10100010111010110100011011001 +
1%
#190000
b101000101110101101000110110010 ,
b100000 -
0%
0#
b10001 *
#195000
b1010001011101011010001101100100 ,
b100000 -
b101000101110101101000110110010 "
b101000101110101101000110110010 +
1%
#200000
0%
b10010 *
#205000
b10100010111010110100011011001000 ,
b100000 -
b1010001011101011010001101100100 "
b1010001011101011010001101100100 +
1%
#210000
0%
b10011 *
#215000
b1000001000101111001000000100111 ,
b100000 -
b10100010111010110100011011001000 "
b10100010111010110100011011001000 +
1%
#220000
b1000101110101101000110110010000 ,
b100000 -
0%
1#
b10100 *
#225000
b10001111011011000000011010010111 ,
b100000 -
b1000101110101101000110110010000 "
b1000101110101101000110110010000 +
1%
#230000
b10001011101011010001101100100000 ,
b100000 -
0%
0#
b10101 *
#235000
b10011100110110010101111110111 ,
b100000 -
b10001011101011010001101100100000 "
b10001011101011010001101100100000 +
1%
#240000
0%
b10110 *
#245000
b100111001101100101011111101110 ,
b100000 -
b10011100110110010101111110111 "
b10011100110110010101111110111 +
1%
#250000
0%
b10111 *
#255000
b1001110011011001010111111011100 ,
b100000 -
b100111001101100101011111101110 "
b100111001101100101011111101110 +
1%
#260000
b1001010101011011011001001101011 ,
b100000 -
0%
1#
b11000 *
#265000
b10010001100110100111100101100001 ,
b100000 -
b1001010101011011011001001101011 "
b1001010101011011011001001101011 +
1%
#270000
0%
b11001 *
#275000
b100011001101001111001011000010 ,
b100000 -
b10010001100110100111100101100001 "
b10010001100110100111100101100001 +
1%
#280000
b100111111101011110111101110101 ,
b100000 -
0%
0#
b11010 *
#285000
b1001111111010111101111011101010 ,
b100000 -
b100111111101011110111101110101 "
b100111111101011110111101110101 +
1%
#290000
b1001011001010101100001101011101 ,
b100000 -
0%
1#
b11011 *
#295000
b10010010100101001001101100001101 ,
b100000 -
b1001011001010101100001101011101 "
b1001011001010101100001101011101 +
1%
#300000
0%
b11100 *
#305000
b100101001010010011011000011010 ,
b100000 -
b10010010100101001001101100001101 "
b10010010100101001001101100001101 +
1%
#310000
b100001111010000010101110101101 ,
b100000 -
0%
0#
b11101 *
#315000
b1000011110100000101011101011010 ,
b100000 -
b100001111010000010101110101101 "
b100001111010000010101110101101 +
1%
#320000
0%
b11110 *
#325000
b10000111101000001010111010110100 ,
b100000 -
b1000011110100000101011101011010 "
b1000011110100000101011101011010 +
1%
#330000
b10000011011000011011001100000011 ,
b100000 -
0%
1#
b11111 *
#335000
b110110000110110011000000110 ,
b100000 -
b10000011011000011011001100000011 "
b10000011011000011011001100000011 +
1%
#340000
0%
b100000 *
#345000
b1001010001111101000110111011 ,
b100000 -
b110110000110110011000000110 "
b110110000110110011000000110 +
1%
#350000
b1101100001101100110000001100 ,
b100000 -
0%
0#
b100001 *
#355000
b11011000011011001100000011000 ,
b100000 -
b1101100001101100110000001100 "
b1101100001101100110000001100 +
1%
#360000
b11111110011001000010110101111 ,
b100000 -
0%
1#
b100010 *
#365000
b111011010110000001011011101001 ,
b100000 -
b11111110011001000010110101111 "
b11111110011001000010110101111 +
1%
#370000
0%
b100011 *
#375000
b1110010011100010011000001100101 ,
b100000 -
b111011010110000001011011101001 "
b111011010110000001011011101001 +
1%
#380000
0%
b100100 *
#385000
b11100000001000110111110101111101 ,
b100000 -
b1110010011100010011000001100101 "
b1110010011100010011000001100101 +
1%
#390000
b11100100111000100110000011001010 ,
b100000 -
0%
0#
b100101 *
#395000
b11001101000001011101110000100011 ,
b100000 -
b11100100111000100110000011001010 "
b11100100111000100110000011001010 +
1%
#400000
0%
b100110 *
#405000
b10011110110010101010010111110001 ,
b100000 -
b11001101000001011101110000100011 "
b11001101000001011101110000100011 +
1%
#410000
0%
b100111 *
#415000
b111001010101000101011001010101 ,
b100000 -
b10011110110010101010010111110001 "
b10011110110010101010010111110001 +
1%
#420000
b111101100101010100101111100010 ,
b100000 -
0%
1#
b101000 *
#425000
b1111111111010111000101001110011 ,
b100000 -
b111101100101010100101111100010 "
b111101100101010100101111100010 +
1%
#430000
b1111011001010101001011111000100 ,
b100000 -
0%
0#
b101001 *
#435000
b11110110010101010010111110001000 ,
b100000 -
b1111011001010101001011111000100 "
b1111011001010101001011111000100 +
1%
#440000
b11110010100101000011001000111111 ,
b100000 -
0%
1#
b101010 *
#445000
b11100101001010000110010001111110 ,
b100000 -
b11110010100101000011001000111111 "
b11110010100101000011001000111111 +
1%
#450000
0%
b101011 *
#455000
b11001010010100001100100011111100 ,
b100000 -
b11100101001010000110010001111110 "
b11100101001010000110010001111110 +
1%
#460000
0%
b101100 *
#465000
b10010100101000011001000111111000 ,
b100000 -
b11001010010100001100100011111100 "
b11001010010100001100100011111100 +
1%
#470000
0%
b101101 *
#475000
b101001010000110010001111110000 ,
b100000 -
b10010100101000011001000111111000 "
b10010100101000011001000111111000 +
1%
#480000
b101101100000100011111001000111 ,
b100000 -
0%
0#
b101110 *
#485000
b1011011000001000111110010001110 ,
b100000 -
b101101100000100011111001000111 "
b101101100000100011111001000111 +
1%
#490000
0%
b101111 *
#495000
b10110110000010001111100100011100 ,
b100000 -
b1011011000001000111110010001110 "
b1011011000001000111110010001110 +
1%
#500000
0%
b110000 *
#505000
b1101000110100001110111110001111 ,
b100000 -
b10110110000010001111100100011100 "
b10110110000010001111100100011100 +
1%
#510000
b1101100000100011111001000111000 ,
b100000 -
0%
1#
b110001 *
#515000
b11011100111000101111100111000111 ,
b100000 -
b1101100000100011111001000111000 "
b1101100000100011111001000111000 +
1%
#520000
0%
b110010 *
#525000
b10111001110001011111001110001110 ,
b100000 -
b11011100111000101111100111000111 "
b11011100111000101111100111000111 +
1%
#530000
0%
b110011 *
#535000
b1110011100010111110011100011100 ,
b100000 -
b10111001110001011111001110001110 "
b10111001110001011111001110001110 +
1%
#540000
b1110111010010101111101010101011 ,
b100000 -
0%
0#
b110100 *
#545000
b11101110100101011111010101010110 ,
b100000 -
b1110111010010101111101010101011 "
b1110111010010101111101010101011 +
1%
#550000
b11101010010101001110100011100001 ,
b100000 -
0%
1#
b110101 *
#555000
b11010100101010011101000111000010 ,
b100000 -
b11101010010101001110100011100001 "
b11101010010101001110100011100001 +
1%
#560000
b11010000011010001100110001110101 ,
b100000 -
0%
0#
b110110 *
#565000
b10100100000100001000010101011101 ,
b100000 -
b11010000011010001100110001110101 "
b11010000011010001100110001110101 +
1%
#570000
b10100000110100011001100011101010 ,
b100000 -
0%
1#
b110111 *
#575000
b1000001101000110011000111010100 ,
b100000 -
b10100000110100011001100011101010 "
b10100000110100011001100011101010 +
1%
#580000
0%
b111000 *
#585000
b10000111100001110111111000011111 ,
b100000 -
b1000001101000110011000111010100 "
b1000001101000110011000111010100 +
1%
#590000
0%
b111001 *
#595000
b1111000011101111110000111110 ,
b100000 -
b10000111100001110111111000011111 "
b10000111100001110111111000011111 +
1%
#600000
b1011110011111110000110001001 ,
b100000 -
0%
0#
b111010 *
#605000
b10111100111111100001100010010 ,
b100000 -
b1011110011111110000110001001 "
b1011110011111110000110001001 +
1%
#610000
b10011010111101101111010100101 ,
b100000 -
0%
1#
b111011 *
#615000
b100010011111001010000011111101 ,
b100000 -
b10011010111101101111010100101 "
b10011010111101101111010100101 +
1%
#620000
0%
b111100 *
#625000
b1000000001110000101110001001101 ,
b100000 -
b100010011111001010000011111101 "
b100010011111001010000011111101 +
1%
#630000
0%
b111101 *
#635000
b10000100101100011010010100101101 ,
b100000 -
b1000000001110000101110001001101 "
b1000000001110000101110001001101 +
1%
#640000
0%
b111110 *
#645000
b1001011000110100101001011010 ,
b100000 -
b10000100101100011010010100101101 "
b10000100101100011010010100101101 +
1%
#650000
b1101101000100101011111101101 ,
b100000 -
0%
0#
b111111 *
#655000
b11011010001001010111111011010 ,
b100000 -
b1101101000100101011111101101 "
b1101101000100101011111101101 +
1%
#660000
0%
0$
b0 *
#665000
1%
#670000
0%
b1 *
#675000
1%
#680000
0%
1(
b10 *
#685000
b11111011001111101110001001001001 ,
b100000 -
b11111111111111111111111111111111 "
b11111111111111111111111111111111 +
1%
#690000
0%
0(
#695000
1%
#700000
b11111111111111111111111111111110 ,
b100000 -
0%
1#
1$
b0 *
#705000
b11111111111111111111111111111100 ,
b100000 -
b11111111111111111111111111111110 "
b11111111111111111111111111111110 +
1%
#710000
0%
b1 *
#715000
b11111111111111111111111111111000 ,
b100000 -
b11111111111111111111111111111100 "
b11111111111111111111111111111100 +
1%
#720000
b11111011001111101110001001001111 ,
b100000 -
0%
0#
b10 *
#725000
b11110010101111001101100100101001 ,
b100000 -
b11111011001111101110001001001111 "
b11111011001111101110001001001111 +
1%
#730000
0%
b11 *
#735000
b11100001101110001010111111100101 ,
b100000 -
b11110010101111001101100100101001 "
b11110010101111001101100100101001 +
1%
#740000
b11100101011110011011001001010010 ,
b100000 -
0%
1#
b100 *
#745000
b11001010111100110110010010100100 ,
b100000 -
b11100101011110011011001001010010 "
b11100101011110011011001001010010 +
1%
#750000
0%
b101 *
#755000
b10010101111001101100100101001000 ,
b100000 -
b11001010111100110110010010100100 "
b11001010111100110110010010100100 +
1%
#760000
0%
b110 *
#765000
b101011110011011001001010010000 ,
b100000 -
b10010101111001101100100101001000 "
b10010101111001101100100101001000 +
1%
#770000
b101111000011001000111100100111 ,
b100000 -
0%
0#
b111 *
#775000
b1011110000110010001111001001110 ,
b100000 -
b101111000011001000111100100111 "
b101111000011001000111100100111 +
1%
#780000
0%
b1000 *
#785000
b10111100001100100011110010011100 ,
b100000 -
b1011110000110010001111001001110 "
b1011110000110010001111001001110 +
1%
#790000
0%
b1001 *
#795000
b1111100101001010110010010001111 ,
b100000 -
b10111100001100100011110010011100 "
b10111100001100100011110010011100 +
1%
#800000
b1111000011001000111100100111000 ,
b100000 -
0%
1#
b1010 *
#805000
b11110100000010011110111111000111 ,
b100000 -
b1111000011001000111100100111000 "
b1111000011001000111100100111000 +
1%
#810000
b11110000110010001111001001110000 ,
b100000 -
0%
0#
b1011 *
#815000
b11100101010100001111100101010111 ,
b100000 -
b11110000110010001111001001110000 "
b11110000110010001111001001110000 +
1%
#820000
b11100001100100011110010011100000 ,
b100000 -
0%
1#
b1100 *
#825000
b11000011001000111100100111000000 ,
b100000 -
b11100001100100011110010011100000 "
b11100001100100011110010011100000 +
1%
#830000
0%
b1101 *
#835000
b10000110010001111001001110000000 ,
b100000 -
b11000011001000111100100111000000 "
b11000011001000111100100111000000 +
1%
#840000
0%
b1110 *
#845000
b1100100011110010011100000000 ,
b100000 -
b10000110010001111001001110000000 "
b10000110010001111001001110000000 +
1%
#850000
b1000010011100011101010110111 ,
b100000 -
0%
0#
b1111 *
#855000
b10000100111000111010101101110 ,
b100000 -
b1000010011100011101010110111 "
b1000010011100011101010110111 +
1%
#860000
b10100010111010110100011011001 ,
b100000 -
0%
1#
b10000 *
#865000
b101100011110111100110000000101 ,
b100000 -
b10100010111010110100011011001 "
b10100010111010110100011011001 +
1%
#870000
b101000101110101101000110110010 ,
b100000 -
0%
0#
b10001 *
#875000
b1010001011101011010001101100100 ,
b100000 -
b101000101110101101000110110010 "
b101000101110101101000110110010 +
1%
#880000
0%
b10010 *
#885000
b10100010111010110100011011001000 ,
b100000 -
b1010001011101011010001101100100 "
b1010001011101011010001101100100 +
1%
#890000
0%
b10011 *
#895000
b1000001000101111001000000100111 ,
b100000 -
b10100010111010110100011011001000 "
b10100010111010110100011011001000 +
1%
#900000
b1000101110101101000110110010000 ,
b100000 -
0%
1#
b10100 *
#905000
b10001111011011000000011010010111 ,
b100000 -
b1000101110101101000110110010000 "
b1000101110101101000110110010000 +
1%
#910000
b10001011101011010001101100100000 ,
b100000 -
0%
0#
b10101 *
#915000
b10011100110110010101111110111 ,
b100000 -
b10001011101011010001101100100000 "
b10001011101011010001101100100000 +
1%
#920000
0%
b10110 *
#925000
b100111001101100101011111101110 ,
b100000 -
b10011100110110010101111110111 "
b10011100110110010101111110111 +
1%
#930000
0%
b10111 *
#935000
b1001110011011001010111111011100 ,
b100000 -
b100111001101100101011111101110 "
b100111001101100101011111101110 +
1%
#940000
b1001010101011011011001001101011 ,
b100000 -
0%
1#
b11000 *
#945000
b10010001100110100111100101100001 ,
b100000 -
b1001010101011011011001001101011 "
b1001010101011011011001001101011 +
1%
#950000
0%
b11001 *
#955000
b100011001101001111001011000010 ,
b100000 -
b10010001100110100111100101100001 "
b10010001100110100111100101100001 +
1%
#960000
b100111111101011110111101110101 ,
b100000 -
0%
0#
b11010 *
#965000
b1001111111010111101111011101010 ,
b100000 -
b100111111101011110111101110101 "
b100111111101011110111101110101 +
1%
#970000
b1001011001010101100001101011101 ,
b100000 -
0%
1#
b11011 *
#975000
b10010010100101001001101100001101 ,
b100000 -
b1001011001010101100001101011101 "
b1001011001010101100001101011101 +
1%
#980000
0%
b11100 *
#985000
b100101001010010011011000011010 ,
b100000 -
b10010010100101001001101100001101 "
b10010010100101001001101100001101 +
1%
#990000
b100001111010000010101110101101 ,
b100000 -
0%
0#
b11101 *
#995000
b1000011110100000101011101011010 ,
b100000 -
b100001111010000010101110101101 "
b100001111010000010101110101101 +
1%
#1000000
0%
b11110 *
#1005000
b10000111101000001010111010110100 ,
b100000 -
b1000011110100000101011101011010 "
b1000011110100000101011101011010 +
1%
#1010000
b10000011011000011011001100000011 ,
b100000 -
0%
1#
b11111 *
#1015000
b110110000110110011000000110 ,
b100000 -
b10000011011000011011001100000011 "
b10000011011000011011001100000011 +
1%
#1020000
0%
b100000 *
#1025000
b1001010001111101000110111011 ,
b100000 -
b110110000110110011000000110 "
b110110000110110011000000110 +
1%
#1030000
b1101100001101100110000001100 ,
b100000 -
0%
0#
b100001 *
#1035000
b11011000011011001100000011000 ,
b100000 -
b1101100001101100110000001100 "
b1101100001101100110000001100 +
1%
#1040000
b11111110011001000010110101111 ,
b100000 -
0%
1#
b100010 *
#1045000
b111011010110000001011011101001 ,
b100000 -
b11111110011001000010110101111 "
b11111110011001000010110101111 +
1%
#1050000
0%
b100011 *
#1055000
b1110010011100010011000001100101 ,
b100000 -
b111011010110000001011011101001 "
b111011010110000001011011101001 +
1%
#1060000
0%
b100100 *
#1065000
b11100000001000110111110101111101 ,
b100000 -
b1110010011100010011000001100101 "
b1110010011100010011000001100101 +
1%
#1070000
b11100100111000100110000011001010 ,
b100000 -
0%
0#
b100101 *
#1075000
b11001101000001011101110000100011 ,
b100000 -
b11100100111000100110000011001010 "
b11100100111000100110000011001010 +
1%
#1080000
0%
b100110 *
#1085000
b10011110110010101010010111110001 ,
b100000 -
b11001101000001011101110000100011 "
b11001101000001011101110000100011 +
1%
#1090000
0%
b100111 *
#1095000
b111001010101000101011001010101 ,
b100000 -
b10011110110010101010010111110001 "
b10011110110010101010010111110001 +
1%
#1100000
b111101100101010100101111100010 ,
b100000 -
0%
1#
b101000 *
#1105000
b1111111111010111000101001110011 ,
b100000 -
b111101100101010100101111100010 "
b111101100101010100101111100010 +
1%
#1110000
b1111011001010101001011111000100 ,
b100000 -
0%
0#
b101001 *
#1115000
b11110110010101010010111110001000 ,
b100000 -
b1111011001010101001011111000100 "
b1111011001010101001011111000100 +
1%
#1120000
b11110010100101000011001000111111 ,
b100000 -
0%
1#
b101010 *
#1125000
b11100101001010000110010001111110 ,
b100000 -
b11110010100101000011001000111111 "
b11110010100101000011001000111111 +
1%
#1130000
0%
b101011 *
#1135000
b11001010010100001100100011111100 ,
b100000 -
b11100101001010000110010001111110 "
b11100101001010000110010001111110 +
1%
#1140000
0%
b101100 *
#1145000
b10010100101000011001000111111000 ,
b100000 -
b11001010010100001100100011111100 "
b11001010010100001100100011111100 +
1%
#1150000
0%
b101101 *
#1155000
b101001010000110010001111110000 ,
b100000 -
b10010100101000011001000111111000 "
b10010100101000011001000111111000 +
1%
#1160000
b101101100000100011111001000111 ,
b100000 -
0%
0#
b101110 *
#1165000
b1011011000001000111110010001110 ,
b100000 -
b101101100000100011111001000111 "
b101101100000100011111001000111 +
1%
#1170000
0%
b101111 *
#1175000
b10110110000010001111100100011100 ,
b100000 -
b1011011000001000111110010001110 "
b1011011000001000111110010001110 +
1%
#1180000
0%
b110000 *
#1185000
b1101000110100001110111110001111 ,
b100000 -
b10110110000010001111100100011100 "
b10110110000010001111100100011100 +
1%
#1190000
b1101100000100011111001000111000 ,
b100000 -
0%
1#
b110001 *
#1195000
b11011100111000101111100111000111 ,
b100000 -
b1101100000100011111001000111000 "
b1101100000100011111001000111000 +
1%
#1200000
0%
b110010 *
#1205000
b10111001110001011111001110001110 ,
b100000 -
b11011100111000101111100111000111 "
b11011100111000101111100111000111 +
1%
#1210000
0%
b110011 *
#1215000
b1110011100010111110011100011100 ,
b100000 -
b10111001110001011111001110001110 "
b10111001110001011111001110001110 +
1%
#1220000
b1110111010010101111101010101011 ,
b100000 -
0%
0#
b110100 *
#1225000
b11101110100101011111010101010110 ,
b100000 -
b1110111010010101111101010101011 "
b1110111010010101111101010101011 +
1%
#1230000
b11101010010101001110100011100001 ,
b100000 -
0%
1#
b110101 *
#1235000
b11010100101010011101000111000010 ,
b100000 -
b11101010010101001110100011100001 "
b11101010010101001110100011100001 +
1%
#1240000
b11010000011010001100110001110101 ,
b100000 -
0%
0#
b110110 *
#1245000
b10100100000100001000010101011101 ,
b100000 -
b11010000011010001100110001110101 "
b11010000011010001100110001110101 +
1%
#1250000
b10100000110100011001100011101010 ,
b100000 -
0%
1#
b110111 *
#1255000
b1000001101000110011000111010100 ,
b100000 -
b10100000110100011001100011101010 "
b10100000110100011001100011101010 +
1%
#1260000
0%
b111000 *
#1265000
b10000111100001110111111000011111 ,
b100000 -
b1000001101000110011000111010100 "
b1000001101000110011000111010100 +
1%
#1270000
0%
b111001 *
#1275000
b1111000011101111110000111110 ,
b100000 -
b10000111100001110111111000011111 "
b10000111100001110111111000011111 +
1%
#1280000
b1011110011111110000110001001 ,
b100000 -
0%
0#
b111010 *
#1285000
b10111100111111100001100010010 ,
b100000 -
b1011110011111110000110001001 "
b1011110011111110000110001001 +
1%
#1290000
b10011010111101101111010100101 ,
b100000 -
0%
1#
b111011 *
#1295000
b100010011111001010000011111101 ,
b100000 -
b10011010111101101111010100101 "
b10011010111101101111010100101 +
1%
#1300000
0%
b111100 *
#1305000
b1000000001110000101110001001101 ,
b100000 -
b100010011111001010000011111101 "
b100010011111001010000011111101 +
1%
#1310000
0%
b111101 *
#1315000
b10000100101100011010010100101101 ,
b100000 -
b1000000001110000101110001001101 "
b1000000001110000101110001001101 +
1%
#1320000
0%
b111110 *
#1325000
b1001011000110100101001011010 ,
b100000 -
b10000100101100011010010100101101 "
b10000100101100011010010100101101 +
1%
#1330000
b1101101000100101011111101101 ,
b100000 -
0%
0#
b111111 *
#1335000
b11011010001001010111111011010 ,
b100000 -
b1101101000100101011111101101 "
b1101101000100101011111101101 +
1%
#1340000
0%
b1101101000100101011111101101 '
b0 *
#1345000
b110110100010010101111110110100 ,
b100000 -
b11011010001001010111111011010 "
b11011010001001010111111011010 +
1%
#1350000
0%
b1 *
#1355000
b1101101000100101011111101101000 ,
b100000 -
b110110100010010101111110110100 "
b110110100010010101111110110100 +
1%
#1360000
0%
b10 *
#1365000
b11011010001001010111111011010000 ,
b100000 -
b1101101000100101011111101101000 "
b1101101000100101011111101101000 +
1%
#1370000
0%
b11 *
#1375000
b10110000100010111110000000010111 ,
b100000 -
b11011010001001010111111011010000 "
b11011010001001010111111011010000 +
1%
#1380000
b10110100010010101111110110100000 ,
b100000 -
0%
1#
b100 *
#1385000
b1101000100101011111101101000000 ,
b100000 -
b10110100010010101111110110100000 "
b10110100010010101111110110100000 +
1%
#1390000
0%
b101 *
#1395000
b11010101111010101110101100110111 ,
b100000 -
b1101000100101011111101101000000 "
b1101000100101011111101101000000 +
1%
#1400000
b11010001001010111111011010000000 ,
b100000 -
0%
0#
b110 *
#1405000
b10100110100101101111000010110111 ,
b100000 -
b11010001001010111111011010000000 "
b11010001001010111111011010000000 +
1%
#1410000
b10100010010101111110110100000000 ,
b100000 -
0%
1#
b111 *
#1415000
b1000100101011111101101000000000 ,
b100000 -
b10100010010101111110110100000000 "
b10100010010101111110110100000000 +
1%
#1420000
0%
b1000 *
#1425000
b10001101100111101010100110110111 ,
b100000 -
b1000100101011111101101000000000 "
b1000100101011111101101000000000 +
1%
#1430000
b10001001010111111011010000000000 ,
b100000 -
0%
0#
b1001 *
#1435000
b10110011111100111010110110111 ,
b100000 -
b10001001010111111011010000000000 "
b10001001010111111011010000000000 +
1%
#1440000
b10010101111110110100000000000 ,
b100000 -
0%
1#
b1010 *
#1445000
b100001101111111100110110110111 ,
b100000 -
b10010101111110110100000000000 "
b10010101111110110100000000000 +
1%
#1450000
b100101011111101101000000000000 ,
b100000 -
0%
0#
b1011 *
#1455000
b1001010111111011010000000000000 ,
b100000 -
b100101011111101101000000000000 "
b100101011111101101000000000000 +
1%
#1460000
0%
b1100 *
#1465000
b10010101111110110100000000000000 ,
b100000 -
b1001010111111011010000000000000 "
b1001010111111011010000000000000 +
1%
#1470000
0%
b1101 *
#1475000
b101111001101111001110110110111 ,
b100000 -
b10010101111110110100000000000000 "
b10010101111110110100000000000000 +
1%
#1480000
b101011111101101000000000000000 ,
b100000 -
0%
1#
b1110 *
#1485000
b1010011001011000001110110110111 ,
b100000 -
b101011111101101000000000000000 "
b101011111101101000000000000000 +
1%
#1490000
b1010111111011010000000000000000 ,
b100000 -
0%
0#
b1111 *
#1495000
b10101111110110100000000000000000 ,
b100000 -
b1010111111011010000000000000000 "
b1010111111011010000000000000000 +
1%
#1500000
0%
b10000 *
#1505000
b1011011011101010001110110110111 ,
b100000 -
b10101111110110100000000000000000 "
b10101111110110100000000000000000 +
1%
#1510000
b1011111101101000000000000000000 ,
b100000 -
0%
1#
b10001 *
#1515000
b10111011101010010001110110110111 ,
b100000 -
b1011111101101000000000000000000 "
b1011111101101000000000000000000 +
1%
#1520000
b10111111011010000000000000000000 ,
b100000 -
0%
0#
b10010 *
#1525000
b1111010000100010001110110110111 ,
b100000 -
b10111111011010000000000000000000 "
b10111111011010000000000000000000 +
1%
#1530000
b1111110110100000000000000000000 ,
b100000 -
0%
1#
b10011 *
#1535000
b11111001011000010001110110110111 ,
b100000 -
b1111110110100000000000000000000 "
b1111110110100000000000000000000 +
1%
#1540000
b11111101101000000000000000000000 ,
b100000 -
0%
0#
b10100 *
#1545000
b11111111100000010001110110110111 ,
b100000 -
b11111101101000000000000000000000 "
b11111101101000000000000000000000 +
1%
#1550000
b11111011010000000000000000000000 ,
b100000 -
0%
1#
b10101 *
#1555000
b11110110100000000000000000000000 ,
b100000 -
b11111011010000000000000000000000 "
b11111011010000000000000000000000 +
1%
#1560000
0%
b10110 *
#1565000
b11101101000000000000000000000000 ,
b100000 -
b11110110100000000000000000000000 "
b11110110100000000000000000000000 +
1%
#1570000
0%
b10111 *
#1575000
b11011010000000000000000000000000 ,
b100000 -
b11101101000000000000000000000000 "
b11101101000000000000000000000000 +
1%
#1580000
0%
b11000 *
#1585000
b10110100000000000000000000000000 ,
b100000 -
b11011010000000000000000000000000 "
b11011010000000000000000000000000 +
1%
#1590000
0%
b11001 *
#1595000
b1101000000000000000000000000000 ,
b100000 -
b10110100000000000000000000000000 "
b10110100000000000000000000000000 +
1%
#1600000
0%
b11010 *
#1605000
b11010100110000010001110110110111 ,
b100000 -
b1101000000000000000000000000000 "
b1101000000000000000000000000000 +
1%
#1610000
b11010000000000000000000000000000 ,
b100000 -
0%
0#
b11011 *
#1615000
b10100100110000010001110110110111 ,
b100000 -
b11010000000000000000000000000000 "
b11010000000000000000000000000000 +
1%
#1620000
b10100000000000000000000000000000 ,
b100000 -
0%
1#
b11100 *
#1625000
b1000000000000000000000000000000 ,
b100000 -
b10100000000000000000000000000000 "
b10100000000000000000000000000000 +
1%
#1630000
0%
b11101 *
#1635000
b10000100110000010001110110110111 ,
b100000 -
b1000000000000000000000000000000 "
b1000000000000000000000000000000 +
1%
#1640000
b10000000000000000000000000000000 ,
b100000 -
0%
0#
b11110 *
#1645000
b100110000010001110110110111 ,
b100000 -
b10000000000000000000000000000000 "
b10000000000000000000000000000000 +
1%
#1650000
b0 ,
b100000 -
0%
1#
b11111 *
#1655000
b100110000010001110110110111 ,
b100000 -
b0 "
b0 +
1%
#1660000
b0 ,
b100000 -
0%
0$
0#
b0 *
#1665000
1%
#1670000
0%
b1 *
#1675000
1%
#1680000
0%
b10 *
