lab05/bitorder.vcd
$date
	Mon Oct 24 21:18:16 2022
$end
$version
	Icarus Verilog
$end
$timescale
	1ps
$end
$scope module firewall_tb $end
$var wire 1 ! axiov $end
$var wire 2 " axiod [1:0] $end
$var reg 2 # axiid [1:0] $end
$var reg 1 $ axiiv $end
$var reg 1 % clk $end
$var reg 48 & data_address [47:0] $end
$var reg 32 ' fcs [31:0] $end
$var reg 16 ( len [15:0] $end
$var reg 32 ) message [31:0] $end
$var reg 1 * rst $end
$var reg 8 + segment [7:0] $end
$var reg 48 , src_address [47:0] $end
$scope module my_fw $end
$var wire 2 - axiid [1:0] $end
$var wire 1 $ axiiv $end
$var wire 1 % clk $end
$var wire 1 * rst $end
$var reg 48 . DES_ADDRESS [47:0] $end
$var reg 48 / MAC_ADDRESS [47:0] $end
$var reg 2 0 axiod [1:0] $end
$var reg 1 ! axiov $end
$var reg 11 1 des_counter [10:0] $end
$var reg 48 2 ds_address [47:0] $end
$var reg 11 3 dta_counter [10:0] $end
$var reg 11 4 fcs_counter [10:0] $end
$var reg 11 5 len_counter [10:0] $end
$var reg 16 6 length [15:0] $end
$var reg 11 7 mac_counter [10:0] $end
$var reg 48 8 mc_address [47:0] $end
$var reg 3 9 state [2:0] $end
$upscope $end
$scope begin $ivl_for_loop0 $end
$var integer 32 : i [31:0] $end
$scope begin $ivl_for_loop1 $end
$var integer 32 ; j [31:0] $end
$upscope $end
$upscope $end
$scope begin $ivl_for_loop2 $end
$var integer 32 < i [31:0] $end
$scope begin $ivl_for_loop3 $end
$var integer 32 = j [31:0] $end
$upscope $end
$upscope $end
$scope begin $ivl_for_loop4 $end
$var integer 32 > i [31:0] $end
$scope begin $ivl_for_loop5 $end
$var integer 32 ? j [31:0] $end
$upscope $end
$upscope $end
$scope begin $ivl_for_loop6 $end
$var integer 32 @ i [31:0] $end
$scope begin $ivl_for_loop7 $end
$var integer 32 A j [31:0] $end
$upscope $end
$upscope $end
$scope begin $ivl_for_loop8 $end
$var integer 32 B i [31:0] $end
$scope begin $ivl_for_loop9 $end
$var integer 32 C j [31:0] $end
$upscope $end
$upscope $end
$upscope $end
$enddefinitions $end
#0
$dumpvars
b0 C
b0 B
b0 A
b0 @
b0 ?
b0 >
b0 =
b0 <
b0 ;
b0 :
bx 9
bx 8
bx 7
bx 6
bx 5
bx 4
bx 3
bx 2
bx 1
bx 0
b11010010110100101011010000001100101010010010001 /
b111111111111111111111111111111111111111111111111 .
bx -
b101010111100110111101111100110000111011001010100 ,
bx +
0*
b1001000110100 )
b100000 (
b11001011111101000011100100100110 '
b11010010010110000001000001100000111010111111101 &
0%
x$
bx #
bx "
x!
$end
#10000
1%
#20000
0%
1*
#30000
b0 6
b0 2
b0 8
b0 4
b0 3
b0 5
b0 1
b0 7
0!
1%
#40000
0%
0*
#50000
1%
#60000
0%
#70000
1%
b1 #
b1 -
b111 ;
b1101001 +
b101111 :
1$
#80000
0%
#90000
1%
b10 #
b10 -
b101 ;
#100000
0%
#110000
1%
b11 ;
#120000
0%
#130000
1%
b1 #
b1 -
b1 ;
#140000
0%
#150000
1%
b0 #
b0 -
b101100 +
b100111 :
b111 ;
#160000
0%
#170000
1%
b10 #
b10 -
b101 ;
#180000
0%
#190000
1%
b11 #
b11 -
b11 ;
#200000
0%
#210000
1%
b0 #
b0 -
b1 ;
#220000
0%
#230000
1%
b1000 +
b11111 :
b111 ;
#240000
0%
#250000
1%
b101 ;
#260000
0%
#270000
1%
b10 #
b10 -
b11 ;
#280000
0%
#290000
1%
b0 #
b0 -
b1 ;
#300000
0%
#310000
1%
b110000 +
b10111 :
b111 ;
#320000
0%
#330000
1%
b11 #
b11 -
b101 ;
#340000
0%
#350000
1%
b0 #
b0 -
b11 ;
#360000
0%
#370000
1%
b1 ;
#380000
0%
#390000
1%
b1 #
b1 -
b1110101 +
b1111 :
b111 ;
#400000
0%
#410000
1%
b11 #
b11 -
b101 ;
#420000
0%
#430000
1%
b1 #
b1 -
b11 ;
#440000
0%
#450000
1%
b1 ;
#460000
0%
#470000
1%
b11 #
b11 -
b11111101 +
b111 :
b111 ;
#480000
0%
#490000
1%
b101 ;
#500000
0%
#510000
1%
b11 ;
#520000
0%
#530000
1%
b1 #
b1 -
b1 ;
#540000
0%
#550000
1%
b10 #
b10 -
b111 =
b10101011 +
b101111 <
b11111111111111111111111111111111 :
b11111111111111111111111111111111 ;
#560000
0%
#570000
1%
b101 =
#580000
0%
#590000
1%
b11 =
#600000
0%
#610000
1%
b11 #
b11 -
b1 =
#620000
0%
#630000
1%
b11001101 +
b100111 <
b111 =
#640000
0%
#650000
1%
b0 #
b0 -
b101 =
#660000
0%
#670000
1%
b11 #
b11 -
b11 =
#680000
0%
#690000
1%
b1 #
b1 -
b1 =
#700000
0%
#710000
1%
b11 #
b11 -
b11101111 +
b11111 <
b111 =
#720000
0%
#730000
1%
b10 #
b10 -
b101 =
#740000
0%
#750000
1%
b11 #
b11 -
b11 =
#760000
0%
#770000
1%
b1 =
#780000
0%
#790000
1%
b10 #
b10 -
b10011000 +
b10111 <
b111 =
#800000
0%
#810000
1%
b1 #
b1 -
b101 =
#820000
0%
#830000
1%
b10 #
b10 -
b11 =
#840000
0%
#850000
1%
b0 #
b0 -
b1 =
#860000
0%
#870000
1%
b1 #
b1 -
b1110110 +
b1111 <
b111 =
#880000
0%
#890000
1%
b11 #
b11 -
b101 =
#900000
0%
#910000
1%
b1 #
b1 -
b11 =
#920000
0%
#930000
1%
b10 #
b10 -
b1 =
#940000
0%
#950000
1%
b1 #
b1 -
b1010100 +
b111 <
b111 =
#960000
0%
#970000
1%
b101 =
#980000
0%
#990000
1%
b11 =
#1000000
0%
#1010000
1%
b0 #
b0 -
b1 =
#1020000
0%
#1030000
1%
b111 ?
b0 +
b1111 >
b11111111111111111111111111111111 <
b11111111111111111111111111111111 =
#1040000
0%
#1050000
1%
b101 ?
#1060000
0%
#1070000
1%
b11 ?
#1080000
0%
#1090000
1%
b1 ?
#1100000
0%
#1110000
1%
b100000 +
b111 >
b111 ?
#1120000
0%
#1130000
1%
b10 #
b10 -
b101 ?
#1140000
0%
#1150000
1%
b0 #
b0 -
b11 ?
#1160000
0%
#1170000
1%
b1 ?
#1180000
0%
#1190000
1%
b111 A
b10010 +
b1111 @
b11111111111111111111111111111111 >
b11111111111111111111111111111111 ?
#1200000
0%
#1210000
1%
b1 #
b1 -
b101 A
#1220000
0%
#1230000
1%
b0 #
b0 -
b11 A
#1240000
0%
#1250000
1%
b10 #
b10 -
b1 A
#1260000
0%
#1270000
1%
b0 #
b0 -
b110100 +
b111 @
b111 A
#1280000
0%
#1290000
1%
b11 #
b11 -
b101 A
#1300000
0%
#1310000
1%
b1 #
b1 -
b11 A
#1320000
0%
#1330000
1%
b0 #
b0 -
b1 A
#1340000
0%
#1350000
1%
b11 #
b11 -
b111 C
b11001011 +
b11111 B
b11111111111111111111111111111111 @
b11111111111111111111111111111111 A
#1360000
0%
#1370000
1%
b0 #
b0 -
b101 C
#1380000
0%
#1390000
1%
b10 #
b10 -
b11 C
#1400000
0%
#1410000
1%
b11 #
b11 -
b1 C
#1420000
0%
#1430000
1%
b11110100 +
b10111 B
b111 C
#1440000
0%
#1450000
1%
b101 C
#1460000
0%
#1470000
1%
b1 #
b1 -
b11 C
#1480000
0%
#1490000
1%
b0 #
b0 -
b1 C
#1500000
0%
#1510000
1%
b111001 +
b1111 B
b111 C
#1520000
0%
#1530000
1%
b11 #
b11 -
b101 C
#1540000
0%
#1550000
1%
b10 #
b10 -
b11 C
#1560000
0%
#1570000
1%
b1 #
b1 -
b1 C
#1580000
0%
#1590000
1%
b0 #
b0 -
b100110 +
b111 B
b111 C
#1600000
0%
#1610000
1%
b10 #
b10 -
b101 C
#1620000
0%
#1630000
1%
b1 #
b1 -
b11 C
#1640000
0%
#1650000
1%
b10 #
b10 -
b1 C
#1660000
0%
#1670000
1%
0$
b11111111111111111111111111111111 B
b11111111111111111111111111111111 C
