lab05/cksum.vcd
$date
	Fri Oct 28 09:18:27 2022
$end
$version
	Icarus Verilog
$end
$timescale
	1ps
$end
$scope module cksum_tb $end
$var wire 1 ! kill $end
$var wire 1 " done $end
$var reg 2 # axiid [1:0] $end
$var reg 1 $ axiiv $end
$var reg 32 % cksum [31:0] $end
$var reg 1 & clk $end
$var reg 168 ' message [167:0] $end
$var reg 96 ( msg [95:0] $end
$var reg 1 ) rst $end
$var reg 8 * segment [7:0] $end
$var reg 200 + total1 [199:0] $end
$var reg 200 , total2 [199:0] $end
$scope module my_cksum $end
$var wire 2 - axiid [1:0] $end
$var wire 1 $ axiiv $end
$var wire 1 . axiov $end
$var wire 1 & clk $end
$var wire 1 ) rst $end
$var wire 1 / crc_rst $end
$var wire 32 0 axiod [31:0] $end
$var reg 1 " done $end
$var reg 1 1 first_axiiv $end
$var reg 1 ! kill $end
$var reg 1 2 lock $end
$scope module mycrc $end
$var wire 2 3 axiid [1:0] $end
$var wire 1 $ axiiv $end
$var wire 32 4 axiod [31:0] $end
$var wire 1 . axiov $end
$var wire 1 & clk $end
$var wire 1 / rst $end
$var reg 32 5 caxiod [31:0] $end
$var reg 32 6 saxiod [31:0] $end
$var integer 32 7 i [31:0] $end
$upscope $end
$upscope $end
$scope begin $ivl_for_loop0 $end
$var integer 32 8 i [31:0] $end
$scope begin $ivl_for_loop1 $end
$var integer 32 9 j [31:0] $end
$upscope $end
$upscope $end
$upscope $end
$enddefinitions $end
#0
$dumpvars
b0 9
b0 8
bx 7
bx 6
bx 5
bx 4
bx 3
x2
x1
bx 0
x/
1.
bx -
b1000010011000010111001001110010011110010010000100100000010000100111001001100101011000010110101101100110011000010111001101110100001000000111010001101001011011010110010100000000000000000000000000000000 ,
b1000010011000010111001001110010011110010010000100100000010000100111001001100101011000010110101101100110011000010111001101110100001000000111010001101001011011010110010100011010001110101100110010110010 +
bx *
0)
b11001110110100101100000110100011001110101111000010110100101101110010110110010110101111000110111 (
b10000100110000101110010011100100111100100100001001000000100001001110010011001010110000101101011011001100110000101110011011101000010000001110100011010010110110101100101 '
0&
b11010001110101100110010110010 %
x$
bx #
x"
x!
$end
#10000
1&
#20000
0&
1)
#30000
12
01
0!
0"
1&
#40000
0&
0)
#50000
1&
#60000
0&
#70000
1&
#80000
0/
0&
1$
#90000
11
02
1&
#100000
1/
0&
0$
#110000
b1111xx1xxx1111xx11xxxxxxxxxxxxxx 6
b100000 7
b0 0
b0 4
1!
1"
b11111111111111111111111111111111 5
1&
#120000
0/
b11110110011111011100010010010010 6
b100000 7
0&
b10 #
b10 -
b10 3
b111 9
b1000010 *
b11000111 8
1$
#130000
b11010000011101010010100100100110 6
b100000 7
b1001100000100011101101101101 0
b1001100000100011101101101101 4
b11110110011111011100010010010010 5
0!
0"
1&
#140000
b11010100101101000011010010010001 6
b100000 7
0&
b0 #
b0 -
b0 3
b101 9
#150000
b1011111100100111111010010011101 6
b100000 7
b101011010010111100101101101110 0
b101011010010111100101101101110 4
b11010100101101000011010010010001 5
1&
#160000
0&
b11 9
#170000
b1111010100011101100111111000011 6
b100000 7
b10100000011011000000101101100010 0
b10100000011011000000101101100010 4
b1011111100100111111010010011101 5
1&
#180000
b1110011000011001111010010101101 6
b100000 7
0&
b1 #
b1 -
b1 3
b1 9
#190000
b11000001011100001111010001101101 6
b100000 7
b10001100111100110000101101010010 0
b10001100111100110000101101010010 4
b1110011000011001111010010101101 5
1&
#200000
b11001100001100111101001010110100 6
b100000 7
0&
b10 #
b10 -
b10 3
b1100001 *
b10111111 8
b111 9
#210000
b111001010011010111000110111110 6
b100000 7
b110011110011000010110101001011 0
b110011110011000010110101001011 4
b11001100001100111101001010110100 5
1&
#220000
b110100000011100101011101100111 6
b100000 7
0&
b1 #
b1 -
b1 3
b101 9
#230000
b11011001101110110110011011110010 6
b100000 7
b11001011111100011010100010011000 0
b11001011111100011010100010011000 4
b110100000011100101011101100111 5
1&
#240000
b11010000001110010101110110011100 6
b100000 7
0&
b0 #
b0 -
b0 3
b11 9
#250000
b1001101101001100101000010101001 6
b100000 7
b101111110001101010001001100011 0
b101111110001101010001001100011 4
b11010000001110010101110110011100 5
1&
#260000
b1001001011001110100110100011110 6
b100000 7
0&
b10 #
b10 -
b10 3
b1 9
#270000
b100101100111010011010001111000 6
b100000 7
b10110110100110001011001011100001 0
b10110110100110001011001011100001 4
b1001001011001110100110100011110 5
1&
#280000
0&
b1110010 *
b10110111 8
b111 9
#290000
b10010010101101011100110001010111 6
b100000 7
b11011010011000101100101110000111 0
b11011010011000101100101110000111 4
b100101100111010011010001111000 5
1&
#300000
b10011011001101111111011100111001 6
b100000 7
0&
b11 #
b11 -
b11 3
b101 9
#310000
b1101000000111101100000101010011 6
b100000 7
b1100100110010000000100011000110 0
b1100100110010000000100011000110 4
b10011011001101111111011100111001 5
1&
#320000
b1100101010111011110011110001010 6
b100000 7
0&
b0 #
b0 -
b0 3
b11 9
#330000
b10010001101101101000001110011111 6
b100000 7
b10011010101000100001100001110101 0
b10011010101000100001100001110101 4
b1100101010111011110011110001010 5
1&
#340000
b10011000001101001011100011110001 6
b100000 7
0&
b1 #
b1 -
b1 3
b1 9
#350000
b1100000110100101110001111000100 6
b100000 7
b1100111110010110100011100001110 0
b1100111110010110100011100001110 4
b10011000001101001011100011110001 5
1&
#360000
b1101101100100011100010100011101 6
b100000 7
0&
b10 #
b10 -
b10 3
b10101111 8
b111 9
#370000
b10110110010001110001010001110100 6
b100000 7
b10010010011011100011101011100010 0
b10010010011011100011101011100010 4
b1101101100100011100010100011101 5
1&
#380000
b10111111110001010010111100011010 6
b100000 7
0&
b11 #
b11 -
b11 3
b101 9
#390000
b11111011110101011010000111011111 6
b100000 7
b1000000001110101101000011100101 0
b1000000001110101101000011100101 4
b10111111110001010010111100011010 5
1&
#400000
b11110110100101101000011100000110 6
b100000 7
0&
b0 #
b0 -
b0 3
b11 9
#410000
b11010111000110010011101011000001 6
b100000 7
b1001011010010111100011111001 0
b1001011010010111100011111001 4
b11110110100101101000011100000110 5
1&
#420000
b11011110100110110000000110101111 6
b100000 7
0&
b1 #
b1 -
b1 3
b1 9
#430000
b1111110101011010001101100001011 6
b100000 7
b100001011001001111111001010000 0
b100001011001001111111001010000 4
b11011110100110110000000110101111 5
1&
#440000
b1110011111011100011110111010010 6
b100000 7
0&
b10 #
b10 -
b10 3
b1111001 *
b10100111 8
b111 9
#450000
b11001111101110001111011101001000 6
b100000 7
b10001100000100011100001000101101 0
b10001100000100011100001000101101 4
b1110011111011100011110111010010 5
1&
#460000
b11000110001110101100110000100110 6
b100000 7
0&
b11 #
b11 -
b11 3
b101 9
#470000
b11000111010110011000010011000 6
b100000 7
b111001110001010011001111011001 0
b111001110001010011001111011001 4
b11000110001110101100110000100110 5
1&
#480000
b11100001010100010110100101111 6
b100000 7
0&
b1 #
b1 -
b1 3
b11 9
#490000
b1111001001010101000111111010010 6
b100000 7
b11100011110101011101001011010000 0
b11100011110101011101001011010000 4
b11100001010100010110100101111 5
1&
#500000
b1110100011010011010100100001011 6
b100000 7
0&
b10 #
b10 -
b10 3
b1 9
#510000
b11010001101001101010010000101100 6
b100000 7
b10001011100101100101011011110100 0
b10001011100101100101011011110100 4
b1110100011010011010100100001011 5
1&
#520000
b11010101011001111011100110011011 6
b100000 7
0&
b0 #
b0 -
b0 3
b100001 *
b10011111 8
b111 9
#530000
b1011000110111011100000010110101 6
b100000 7
b101010100110000100011001100100 0
b101010100110000100011001100100 4
b11010101011001111011100110011011 5
1&
#540000
b1010001010111111111101111011011 6
b100000 7
0&
b1 #
b1 -
b1 3
b101 9
#550000
b1001000001111001100100110110101 6
b100000 7
b10101110101000000000010000100100 0
b10101110101000000000010000100100 4
b1010001010111111111101111011011 5
1&
#560000
b1000001101111101111001011011011 6
b100000 7
0&
b0 #
b0 -
b0 3
b11 9
#570000
b10001110101101011011011011 6
b100000 7
b10111110010000010000110100100100 0
b10111110010000010000110100100100 4
b1000001101111101111001011011011 5
1&
#580000
b110111110111100101101101100 6
b100000 7
0&
b10 #
b10 -
b10 3
b1 9
#590000
b11111001011100011000000000111 6
b100000 7
b11111001000001000011010010010011 0
b11111001000001000011010010010011 4
b110111110111100101101101100 5
1&
#600000
b11011111011110010110110110000 6
b100000 7
0&
b0 #
b0 -
b0 3
b100000 *
b10010111 8
b111 9
#610000
b1101111101111001011011011000000 6
b100000 7
b11100100000100001101001001001111 0
b11100100000100001101001001001111 4
b11011111011110010110110110000 5
1&
#620000
b1100110001111101000110110101110 6
b100000 7
0&
b1 #
b1 -
b1 3
b101 9
#630000
b10010101101110010001000001100001 6
b100000 7
b10011001110000010111001001010001 0
b10011001110000010111001001010001 4
b1100110001111101000110110101110 5
1&
#640000
b10011100001110110010101100001111 6
b100000 7
0&
b0 #
b0 -
b0 3
b11 9
#650000
b1111001011011101001011101010010 6
b100000 7
b1100011110001001101010011110000 0
b1100011110001001101010011110000 4
b10011100001110110010101100001111 5
1&
#660000
0&
b1 9
#670000
b11100001011110110100000011111111 6
b100000 7
b10000110100100010110100010101101 0
b10000110100100010110100010101101 4
b1111001011011101001011101010010 5
1&
#680000
b11100101101110100101110101001000 6
b100000 7
0&
b10 #
b10 -
b10 3
b1000010 *
b10001111 8
b111 9
#690000
b10011111011010110100111001001110 6
b100000 7
b11010010001011010001010110111 0
b11010010001011010001010110111 4
b11100101101110100101110101001000 5
1&
#700000
b10011011101010100101001111111001 6
b100000 7
0&
b0 #
b0 -
b0 3
b101 9
#710000
b1100111001010110111010010001010 6
b100000 7
b1100100010101011010110000000110 0
b1100100010101011010110000000110 4
b10011011101010100101001111111001 5
1&
#720000
0&
b11 9
#730000
b10011000011011001100111110011111 6
b100000 7
b10011000110101001000101101110101 0
b10011000110101001000101101110101 4
b1100111001010110111010010001010 5
1&
#740000
b10010001111011101111010011110001 6
b100000 7
0&
b1 #
b1 -
b1 3
b1 9
#750000
b1000111101110111101001111000100 6
b100000 7
b1101110000100010000101100001110 0
b1101110000100010000101100001110 4
b10010001111011101111010011110001 5
1&
#760000
b1001010111110001111010100011101 6
b100000 7
0&
b10 #
b10 -
b10 3
b1110010 *
b10000111 8
b111 9
#770000
b101011111000111101010001110100 6
b100000 7
b10110101000001110000101011100010 0
b10110101000001110000101011100010 4
b1001010111110001111010100011101 5
1&
#780000
b100010011000011110111100011010 6
b100000 7
0&
b11 #
b11 -
b11 3
b101 9
#790000
b10000100110001001001101010110001 6
b100000 7
b11011101100111100001000011100101 0
b11011101100111100001000011100101 4
b100010011000011110111100011010 5
1&
#800000
b10001001100001111011110001101000 6
b100000 7
0&
b0 #
b0 -
b0 3
b11 9
#810000
b101111100111001100101011001110 6
b100000 7
b1110110011110000100001110010111 0
b1110110011110000100001110010111 4
b10001001100001111011110001101000 5
1&
#820000
b100110000111101111000110100000 6
b100000 7
0&
b1 #
b1 -
b1 3
b1 9
#830000
b10010001111110011111110111101110 6
b100000 7
b11011001111000010000111001011111 0
b11011001111000010000111001011111 4
b100110000111101111000110100000 5
1&
#840000
b10011100101110101101101100110111 6
b100000 7
0&
b10 #
b10 -
b10 3
b1100101 *
b1111111 8
b111 9
#850000
b1111111101010000100101000000101 6
b100000 7
b1100011010001010010010011001000 0
b1100011010001010010010011001000 4
b10011100101110101101101100110111 5
1&
#860000
b1110010111010110110110011011100 6
b100000 7
0&
b1 #
b1 -
b1 3
b101 9
#870000
b11000110111011101001010110101001 6
b100000 7
b10001101000101001001001100100011 0
b10001101000101001001001100100011 4
b1110010111010110110110011011100 5
1&
#880000
b11001011101011011011001101110000 6
b100000 7
0&
b10 #
b10 -
b10 3
b11 9
#890000
b100111001101001111011010101110 6
b100000 7
b110100010100100100110010001111 0
b110100010100100100110010001111 4
b11001011101011011011001101110000 5
1&
#900000
0&
b1 9
#910000
b10011000000100101100011100001111 6
b100000 7
b11011000110010110000100101010001 0
b11011000110010110000100101010001 4
b100111001101001111011010101110 5
1&
#920000
0&
b1100001 *
b1110111 8
b111 9
#930000
b1101101000010000011101011100101 6
b100000 7
b1100111111011010011100011110000 0
b1100111111011010011100011110000 4
b10011000000100101100011100001111 5
1&
#940000
b1100000010010110001110000111100 6
b100000 7
0&
b1 #
b1 -
b1 3
b101 9
#950000
b10001100011011110101011000101001 6
b100000 7
b10011111101101001110001111000011 0
b10011111101101001110001111000011 4
b1100000010010110001110000111100 5
1&
#960000
b10000101111011010110110101000111 6
b100000 7
0&
b0 #
b0 -
b0 3
b11 9
#970000
b11110001101111000111001110010 6
b100000 7
b1111010000100101001001010111000 0
b1111010000100101001001010111000 4
b10000101111011010110110101000111 5
1&
#980000
b11010111101101001001111000101 6
b100000 7
0&
b10 #
b10 -
b10 3
b1 9
#990000
b1101111000110110101001010100011 6
b100000 7
b11100101000010010110110000111010 0
b11100101000010010110110000111010 4
b11010111101101001001111000101 5
1&
#1000000
0&
b1101011 *
b1101111 8
b111 9
#1010000
b10111100011011010100101010001100 6
b100000 7
b10010000111001001010110101011100 0
b10010000111001001010110101011100 4
b1101111000110110101001010100011 5
1&
#1020000
b10110001001011100110110001010101 6
b100000 7
0&
b1 #
b1 -
b1 3
b101 9
#1030000
b11000100101110011011000101010100 6
b100000 7
b1001110110100011001001110101010 0
b1001110110100011001001110101010 4
b10110001001011100110110001010101 5
1&
#1040000
0&
b11 9
#1050000
b10110001001111101100011100111 6
b100000 7
b111011010001100100111010101011 0
b111011010001100100111010101011 4
b11000100101110011011000101010100 5
1&
#1060000
b10010111001101100010101010000 6
b100000 7
0&
b11 #
b11 -
b11 3
b1 9
#1070000
b1000110110110000011001110011001 6
b100000 7
b11101101000110010011101010101111 0
b11101101000110010011101010101111 4
b10010111001101100010101010000 5
1&
#1080000
b1001111010110100000100011110111 6
b100000 7
0&
b10 #
b10 -
b10 3
b1100110 *
b1100111 8
b111 9
#1090000
b111101011010000010001111011100 6
b100000 7
b10110000101001011111011100001000 0
b10110000101001011111011100001000 4
b1001111010110100000100011110111 5
1&
#1100000
b110000001010110000010100000101 6
b100000 7
0&
b1 #
b1 -
b1 3
b101 9
#1110000
b11001001001011100010111101111010 6
b100000 7
b11001111110101001111101011111010 0
b11001111110101001111101011111010 4
b110000001010110000010100000101 5
1&
#1120000
b11000100011011010000100110100011 6
b100000 7
0&
b10 #
b10 -
b10 3
b11 9
#1130000
b11000001101100001110111100010 6
b100000 7
b111011100100101111011001011100 0
b111011100100101111011001011100 4
b11000100011011010000100110100011 5
1&
#1140000
b10101011101010011101100111011 6
b100000 7
0&
b1 #
b1 -
b1 3
b1 9
#1150000
b1011100010101101101011110000010 6
b100000 7
b11101010100010101100010011000100 0
b11101010100010101100010011000100 4
b10101011101010011101100111011 5
1&
#1160000
b1010001000101011111000101011011 6
b100000 7
0&
b10 #
b10 -
b10 3
b1100001 *
b1011111 8
b111 9
#1170000
b1000100010101111100010101101100 6
b100000 7
b10101110111010100000111010100100 0
b10101110111010100000111010100100 4
b1010001000101011111000101011011 5
1&
#1180000
b1001001000101001110001110110101 6
b100000 7
0&
b1 #
b1 -
b1 3
b101 9
#1190000
b101001000100001010100000001101 6
b100000 7
b10110110111010110001110001001010 0
b10110110111010110001110001001010 4
b1001001000101001110001110110101 5
1&
#1200000
b100000100100101001001101100011 6
b100000 7
0&
b0 #
b0 -
b0 3
b11 9
#1210000
b10000010010010100100110110001100 6
b100000 7
b11011111011011010110110010011100 0
b11011111011011010110110010011100 4
b100000100100101001001101100011 5
1&
#1220000
b10000110100010110101000000111011 6
b100000 7
0&
b10 #
b10 -
b10 3
b1 9
#1230000
b10111011011100110011000110101 6
b100000 7
b1111001011101001010111111000100 0
b1111001011101001010111111000100 4
b10000110100010110101000000111011 5
1&
#1240000
0&
b1110011 *
b1010111 8
b111 9
#1250000
b1011001011110001000010101100011 6
b100000 7
b11101000100100011001100111001010 0
b11101000100100011001100111001010 4
b10111011011100110011000110101 5
1&
#1260000
b1010000111110101011111000001101 6
b100000 7
0&
b11 #
b11 -
b11 3
b101 9
#1270000
b1001010011010001100001101011010 6
b100000 7
b10101111000001010100000111110010 0
b10101111000001010100000111110010 4
b1010000111110101011111000001101 5
1&
#1280000
b1000111001010111110010110000011 6
b100000 7
0&
b0 #
b0 -
b0 3
b11 9
#1290000
b11000011011101000101110111011 6
b100000 7
b10111000110101000001101001111100 0
b10111000110101000001101001111100 4
b1000111001010111110010110000011 5
1&
#1300000
b10101001011011010110101100010 6
b100000 7
0&
b11 #
b11 -
b11 3
b1 9
#1310000
b1011001111101011001001101010001 6
b100000 7
b11101010110100100101001010011101 0
b11101010110100100101001010011101 4
b10101001011011010110101100010 5
1&
#1320000
b1010000011101111010100000111111 6
b100000 7
0&
b10 #
b10 -
b10 3
b1110100 *
b1001111 8
b111 9
#1330000
b1000001110111101010000011111100 6
b100000 7
b10101111100010000101011111000000 0
b10101111100010000101011111000000 4
b1010000011101111010100000111111 5
1&
#1340000
b1001000010111001001101110010010 6
b100000 7
0&
b11 #
b11 -
b11 3
b101 9
#1350000
b101000111100000101010100100110 6
b100000 7
b10110111101000110110010001101101 0
b10110111101000110110010001101101 4
b1001000010111001001101110010010 5
1&
#1360000
b100001011100100110111001001000 6
b100000 7
0&
b10 #
b10 -
b10 3
b11 9
#1370000
b10000001000010001010010010010111 6
b100000 7
b11011110100011011001000110110111 0
b11011110100011011001000110110111 4
b100001011100100110111001001000 5
1&
#1380000
b10000101110010011011100100100000 6
b100000 7
0&
b0 #
b0 -
b0 3
b1 9
#1390000
b11110101001001101111111101110 6
b100000 7
b1111010001101100100011011011111 0
b1111010001101100100011011011111 4
b10000101110010011011100100100000 5
1&
#1400000
0&
b100000 *
b1000111 8
b111 9
#1410000
b1111010100100110111111110111000 6
b100000 7
b11100001010110110010000000010001 0
b11100001010110110010000000010001 4
b11110101001001101111111101110 5
1&
#1420000
b1110011000100010100010011010110 6
b100000 7
0&
b1 #
b1 -
b1 3
b101 9
#1430000
b11000001000001100011010110000001 6
b100000 7
b10001100111011101011101100101001 0
b10001100111011101011101100101001 4
b1110011000100010100010011010110 5
1&
#1440000
b11001000100001000000111011101111 6
b100000 7
0&
b0 #
b0 -
b0 3
b11 9
#1450000
b101111010100110001110101100101 6
b100000 7
b110111011110111111000100010000 0
b110111011110111111000100010000 4
b11001000100001000000111011101111 5
1&
#1460000
0&
b1 9
#1470000
b10111101010011000111010110010100 6
b100000 7
b11010000101011001110001010011010 0
b11010000101011001110001010011010 4
b101111010100110001110101100101 5
1&
#1480000
b10111001100011010110100000100011 6
b100000 7
0&
b10 #
b10 -
b10 3
b1110100 *
b111111 8
b111 9
#1490000
b11101011011101101000011001010101 6
b100000 7
b1000110011100101001011111011100 0
b1000110011100101001011111011100 4
b10111001100011010110100000100011 5
1&
#1500000
b11100010111101001011110100111011 6
b100000 7
0&
b11 #
b11 -
b11 3
b101 9
#1510000
b10001011110100101111010011101100 6
b100000 7
b11101000010110100001011000100 0
b11101000010110100001011000100 4
b11100010111101001011110100111011 5
1&
#1520000
b10000010010100001100111110000010 6
b100000 7
0&
b10 #
b10 -
b10 3
b11 9
#1530000
b100000000000001100011010001 6
b100000 7
b1111101101011110011000001111101 0
b1111101101011110011000001111101 4
b10000010010100001100111110000010 5
1&
#1540000
b110000010000010101100110 6
b100000 7
0&
b0 #
b0 -
b0 3
b1 9
#1550000
b11000001000001010110011000 6
b100000 7
b11111111001111101111101010011001 0
b11111111001111101111101010011001 4
b110000010000010101100110 5
1&
#1560000
b111110001010000100000101111 6
b100000 7
0&
b10 #
b10 -
b10 3
b1101001 *
b110111 8
b111 9
#1570000
b11011110101010011110100001011 6
b100000 7
b11111000001110101111011111010000 0
b11111000001110101111011111010000 4
b111110001010000100000101111 5
1&
#1580000
b10110100101100001101111010010 6
b100000 7
0&
b1 #
b1 -
b1 3
b101 9
#1590000
b1010011110110100101010000100110 6
b100000 7
b11101001011010011110010000101101 0
b11101001011010011110010000101101 4
b10110100101100001101111010010 5
1&
#1600000
0&
b11 9
#1610000
b1000010001010100111011001000001 6
b100000 7
b10101100001001011010101111011001 0
b10101100001001011010101111011001 4
b1010011110110100101010000100110 5
1&
#1620000
b1001111011010010101000010011000 6
b100000 7
0&
b10 #
b10 -
b10 3
b1 9
#1630000
b111101101001010100001001100000 6
b100000 7
b10110000100101101010111101100111 0
b10110000100101101010111101100111 4
b1001111011010010101000010011000 5
1&
#1640000
0&
b1101101 *
b101111 8
b111 9
#1650000
b11110010010101000001010000110111 6
b100000 7
b11000010010110101011110110011111 0
b11000010010110101011110110011111 4
b111101101001010100001001100000 5
1&
#1660000
b11111111000101110011001011101110 6
b100000 7
0&
b1 #
b1 -
b1 3
b101 9
#1670000
b11111000100111011101011000001111 6
b100000 7
b111010001100110100010001 0
b111010001100110100010001 4
b11111111000101110011001011101110 5
1&
#1680000
b11111100010111001100101110111000 6
b100000 7
0&
b11 #
b11 -
b11 3
b11 9
#1690000
b11110001011100110010111011100000 6
b100000 7
b11101000110011010001000111 0
b11101000110011010001000111 4
b11111100010111001100101110111000 5
1&
#1700000
b11111000111100010001010110001110 6
b100000 7
0&
b10 #
b10 -
b10 3
b1 9
#1710000
b11101010010001100110110101010110 6
b100000 7
b111000011101110101001110001 0
b111000011101110101001110001 4
b11111000111100010001010110001110 5
1&
#1720000
0&
b1100101 *
b100111 8
b111 9
#1730000
b10100000100110111000111000110110 6
b100000 7
b10101101110011001001010101001 0
b10101101110011001001010101001 4
b11101010010001100110110101010110 5
1&
#1740000
b10101101110110001010100011101111 6
b100000 7
0&
b1 #
b1 -
b1 3
b101 9
#1750000
b10110111011000101010001110111100 6
b100000 7
b1010010001001110101011100010000 0
b1010010001001110101011100010000 4
b10101101110110001010100011101111 5
1&
#1760000
b10111010001000011000010101100101 6
b100000 7
0&
b10 #
b10 -
b10 3
b11 9
#1770000
b11100101110001010011001101001101 6
b100000 7
b1000101110111100111101010011010 0
b1000101110111100111101010011010 4
b10111010001000011000010101100101 5
1&
#1780000
0&
b1 9
#1790000
b10011110100101101111011001011010 6
b100000 7
b11010001110101100110010110010 0
b11010001110101100110010110010 4
b11100101110001010011001101001101 5
1&
#1800000
b10011010010101111110101111101101 6
b100000 7
0&
b0 #
b0 -
b0 3
b11010 *
b11111 8
b111 9
#1810000
b1100000110111011001010011011010 6
b100000 7
b1100101101010000001010000010010 0
b1100101101010000001010000010010 4
b10011010010101111110101111101101 5
1&
#1820000
b1100100000111001000100101101101 6
b100000 7
0&
b10 #
b10 -
b10 3
b101 9
#1830000
b10010000011100100010010110110100 6
b100000 7
b10011011111000110111011010010010 0
b10011011111000110111011010010010 4
b1100100000111001000100101101101 5
1&
#1840000
b10011101001100010000001101101101 6
b100000 7
0&
b1 #
b1 -
b1 3
b11 9
#1850000
b1110100110001000000110110110100 6
b100000 7
b1100010110011101111110010010010 0
b1100010110011101111110010010010 4
b10011101001100010000001101101101 5
1&
#1860000
0&
b1 9
#1870000
b11011110010100110001000000001001 6
b100000 7
b10001011001110111111001001001011 0
b10001011001110111111001001001011 4
b1110100110001000000110110110100 5
1&
#1880000
b11010111110100010010101101100111 6
b100000 7
0&
b0 #
b0 -
b0 3
b111010 *
b10111 8
b111 9
#1890000
b1010010000001111000101101000101 6
b100000 7
b101000001011101101010010011000 0
b101000001011101101010010011000 4
b11010111110100010010101101100111 5
1&
#1900000
b1011111010001001010110110011100 6
b100000 7
0&
b11 #
b11 -
b11 3
b101 9
#1910000
b1110100100100001000110100011110 6
b100000 7
b10100000101110110101001001100011 0
b10100000101110110101001001100011 4
b1011111010001001010110110011100 5
1&
#1920000
b1110000010100011001000010101001 6
b100000 7
0&
b1 #
b1 -
b1 3
b11 9
#1930000
b11001100000001010110010001111101 6
b100000 7
b10001111101011100110111101010110 0
b10001111101011100110111101010110 4
b1110000010100011001000010101001 5
1&
#1940000
0&
b1 9
#1950000
b110100110101001000110001000011 6
b100000 7
b110011111110101001101110000010 0
b110011111110101001101110000010 4
b11001100000001010110010001111101 5
1&
#1960000
b110000000101011001000111110100 6
b100000 7
0&
b11 #
b11 -
b11 3
b11001100 *
b1111 8
b111 9
#1970000
b11001101000101010110000100001001 6
b100000 7
b11001111111010100110111000001011 0
b11001111111010100110111000001011 4
b110000000101011001000111110100 5
1&
#1980000
b11000000010101100100011111010000 6
b100000 7
0&
b0 #
b0 -
b0 3
b101 9
#1990000
b1100000110100011100110011001 6
b100000 7
b111111101010011011100000101111 0
b111111101010011011100000101111 4
b11000000010101100100011111010000 5
1&
#2000000
b1010110010001111101000000 6
b100000 7
0&
b11 #
b11 -
b11 3
b11 9
#2010000
b1000001001110101101111011001 6
b100000 7
b11111110101001101110000010111111 0
b11111110101001101110000010111111 4
b1010110010001111101000000 5
1&
#2020000
b101011001000111110100000000 6
b100000 7
0&
b0 #
b0 -
b0 3
b1 9
#2030000
b10101100100011111010000000000 6
b100000 7
b11111010100110111000001011111111 0
b11111010100110111000001011111111 4
b101011001000111110100000000 5
1&
#2040000
b11100000100111100111101101110 6
b100000 7
0&
b1 #
b1 -
b1 3
b10110010 *
b111 8
b111 9
#2050000
b1111001110011010000011011010110 6
b100000 7
b11100011111011000011000010010001 0
b11100011111011000011000010010001 4
b11100000100111100111101101110 5
1&
#2060000
b1111101000011000001101101100001 6
b100000 7
0&
b11 #
b11 -
b11 3
b101 9
#2070000
b11111101101100100101011011101010 6
b100000 7
b10000010111100111110010010011110 0
b10000010111100111110010010011110 4
b1111101000011000001101101100001 5
1&
#2080000
b11110000111100010111000000110011 6
b100000 7
0&
b0 #
b0 -
b0 3
b11 9
#2090000
b11001110100001101110011000010101 6
b100000 7
b1111000011101000111111001100 0
b1111000011101000111111001100 4
b11110000111100010111000000110011 5
1&
#2100000
b11000111000001001101110101111011 6
b100000 7
0&
b1 #
b1 -
b1 3
b1 9
#2110000
b11000110100100110100001011011 6
b100000 7
b111000111110110010001010000100 0
b111000111110110010001010000100 4
b11000111000001001101110101111011 5
1&
#2120000
1/
0&
0$
b11111111111111111111111111111111 8
b11111111111111111111111111111111 9
#2130000
b11111011001111101110001001001011 6
b100000 7
b0 0
b0 4
b11111111111111111111111111111111 5
12
1"
1&
