lab05/fcs.vcd
$date
	Thu Oct 27 00:39:14 2022
$end
$version
	Icarus Verilog
$end
$timescale
	1ps
$end
$scope module cksum_tb $end
$var wire 1 ! kill $end
$var wire 1 " done $end
$var reg 2 # axiid [1:0] $end
$var reg 1 $ axiiv $end
$var reg 32 % cksum [31:0] $end
$var reg 1 & clk $end
$var reg 168 ' message [167:0] $end
$var reg 1 ( rst $end
$var reg 8 ) segment [7:0] $end
$var reg 200 * total [199:0] $end
$scope module my_cksum $end
$var wire 2 + axiid [1:0] $end
$var wire 1 $ axiiv $end
$var wire 1 , axiov $end
$var wire 1 & clk $end
$var wire 1 ( rst $end
$var wire 1 - crc_rst $end
$var wire 32 . axiod [31:0] $end
$var reg 1 " done $end
$var reg 1 / first_axiiv $end
$var reg 1 ! kill $end
$scope module mycrc $end
$var wire 2 0 axiid [1:0] $end
$var wire 1 $ axiiv $end
$var wire 32 1 axiod [31:0] $end
$var wire 1 , axiov $end
$var wire 1 & clk $end
$var wire 1 - rst $end
$var reg 32 2 caxiod [31:0] $end
$var reg 32 3 saxiod [31:0] $end
$var integer 32 4 i [31:0] $end
$upscope $end
$upscope $end
$scope begin $ivl_for_loop0 $end
$var integer 32 5 i [31:0] $end
$scope begin $ivl_for_loop1 $end
$var integer 32 6 j [31:0] $end
$upscope $end
$upscope $end
$upscope $end
$enddefinitions $end
#0
$dumpvars
b0 6
b0 5
bx 4
bx 3
bx 2
bx 1
bx 0
x/
bx .
x-
1,
bx +
b1000010011000010111001001110010011110010010000100100000010000100111001001100101011000010110101101100110011000010111001101110100001000000111010001101001011011010110010100011010001110101100110010110010 *
bx )
0(
b10000100110000101110010011100100111100100100001001000000100001001110010011001010110000101101011011001100110000101110011011101000010000001110100011010010110110101100101 '
0&
b11010001110101100110010110010 %
x$
bx #
x"
x!
$end
#10000
1&
#20000
0&
1(
#30000
0/
0!
0"
1&
#40000
0&
0(
#50000
1&
#60000
0&
#70000
1/
0-
1&
1$
#80000
0&
#90000
1!
1"
1-
1&
0$
#100000
0&
#110000
b11110110011111011100010010010010 3
b0 .
b0 1
0!
0"
b11111111111111111111111111111111 2
0-
b100000 4
1&
b10 #
b10 +
b10 0
b1000010 )
b11000111 5
1$
#120000
0&
#130000
b1101010000110010011011011010 .
b1101010000110010011011011010 1
b11110010101111001101100100100101 2
b11000111101100000100001001001101 3
b100000 4
1&
b0 #
b0 +
b0 0
b10 6
#140000
0&
#150000
b10011100000100010111111101101 3
b100000 4
b111000010011111011110110110010 .
b111000010011111011110110110010 1
b11000111101100000100001001001101 2
1&
b100 6
#160000
0&
#170000
b11100101111111111110101101111100 .
b11100101111111111110101101111100 1
b11010000000000001010010000011 2
b1100001100000100110100101100010 3
b100000 4
1&
b1 #
b1 +
b1 0
b110 6
#180000
0&
#190000
b10001011010010101000001101010001 3
b100000 4
b10011110011111011001011010011101 .
b10011110011111011001011010011101 1
b1100001100000100110100101100010 2
1&
b1100001 )
b10111111 5
b0 6
#200000
0&
#210000
b1111101001101110100011111000000 .
b1111101001101110100011111000000 1
b10000010110010001011100000111111 2
b10101000001101101110010010 3
b100000 4
1&
b0 #
b0 +
b0 0
b10 6
#220000
0&
#230000
b11111001100111100011100111011010 .
b11111001100111100011100111011010 1
b110011000011100011000100101 2
b11101010001100000010100100011 3
b100000 4
1&
b10 #
b10 +
b10 0
b100 6
#240000
0&
#250000
b11101111111110101101110000000101 .
b11101111111110101101110000000101 1
b10000000001010010001111111010 2
b1001001100101101011010010000110 3
b100000 4
1&
b1 #
b1 +
b1 0
b110 6
#260000
0&
#270000
b10111011001010100110110110100000 .
b10111011001010100110110110100000 1
b1000100110101011001001001011111 2
b10011010101100100100101111100 3
b100000 4
1&
b10 #
b10 +
b10 0
b1110010 )
b10110111 5
b0 6
#280000
0&
#290000
b11101000011010001010101100110100 .
b11101000011010001010101100110100 1
b10111100101110101010011001011 2
b1011110010111010101001100101100 3
b100000 4
1&
b0 #
b0 +
b0 0
b10 6
#300000
0&
#310000
b10101100111000011000101000001010 .
b10101100111000011000101000001010 1
b1010011000111100111010111110101 2
b1000101111110111110110010111010 3
b100000 4
1&
b11 #
b11 +
b11 0
b100 6
#320000
0&
#330000
b10111110110001010000111011110010 .
b10111110110001010000111011110010 1
b1000001001110101111000100001101 2
b1001101010001110001011101101 3
b100000 4
1&
b1 #
b1 +
b1 0
b110 6
#340000
0&
#350000
b11111011000101000011101111001011 .
b11111011000101000011101111001011 1
b100111010111100010000110100 2
b10111011011100000110101100111 3
b100000 4
1&
b10 #
b10 +
b10 0
b10101111 5
b0 6
#360000
0&
#370000
b11101100010100001110111100101111 .
b11101100010100001110111100101111 1
b10011101011110001000011010000 2
b1001110101111000100001101000000 3
b100000 4
1&
b0 #
b0 +
b0 0
b10 6
#380000
0&
#390000
b10111100000000001001101001100110 .
b10111100000000001001101001100110 1
b1000011111111110110010110011001 2
b110011111111010110100001010 3
b100000 4
1&
b11 #
b11 +
b11 0
b100 6
#400000
0&
#410000
b11111101010000010100111101000010 .
b11111101010000010100111101000010 1
b10101111101011000010111101 2
b11011110001111100110011010 3
b100000 4
1&
b1 #
b1 +
b1 0
b110 6
#420000
0&
#430000
b100011000011101110100000110 3
b100000 4
b11111100100001110000011001100101 .
b11111100100001110000011001100101 1
b11011110001111100110011010 2
1&
b1111001 )
b10100111 5
b0 6
#440000
0&
#450000
b11110110110111010000010000100000 .
b11110110110111010000010000100000 1
b1001001000101111101111011111 2
b100000010010101111001011001011 3
b100000 4
1&
b10 #
b10 +
b10 0
b10 6
#460000
0&
#470000
b11010110001101110011011001011010 .
b11010110001101110011011001011010 1
b101001110010001100100110100101 2
b10101010011000000000000001001101 3
b100000 4
1&
b11 #
b11 +
b11 0
b100 6
#480000
0&
#490000
b1010001010111101110001000000101 .
b1010001010111101110001000000101 1
b10101110101000010001110111111010 2
b10111010100001000111011111101000 3
b100000 4
1&
b1 #
b1 +
b1 0
b110 6
#500000
0&
#510000
b11101010000100011101111110100000 3
b100000 4
b1000101011110111000100000010111 .
b1000101011110111000100000010111 1
b10111010100001000111011111101000 2
1&
b100001 )
b10011111 5
b0 6
#520000
0&
#530000
b11100011011000001101100110001 .
b11100011011000001101100110001 1
b11100011100100111110010011001110 2
b10000011000011001011010111100001 3
b100000 4
1&
b0 #
b0 +
b0 0
b10 6
#540000
0&
#550000
b1111000001100100101011110101001 .
b1111000001100100101011110101001 1
b10000111110011011010100001010110 2
b10010011101011000011110000001 3
b100000 4
1&
b10 #
b10 +
b10 0
b100 6
#560000
0&
#570000
b11101001010010110110010111001001 .
b11101001010010110110010111001001 1
b10110101101001001101000110110 2
b1011010110100100110100011011000 3
b100000 4
1&
b0 #
b0 +
b0 0
b110 6
#580000
0&
#590000
b1101111100010001011111011010111 3
b100000 4
b10100101001011011001011100100111 .
b10100101001011011001011100100111 1
b1011010110100100110100011011000 2
1&
b100000 )
b10010111 5
b0 6
#600000
0&
#610000
b10111010111000111110011011101011 3
b100000 4
b10010000011101110100000100101000 .
b10010000011101110100000100101000 1
b1101111100010001011111011010111 2
1&
b10 6
#620000
0&
#630000
b1000001110111010000010010100011 .
b1000001110111010000010010100011 1
b10111110001000101111101101011100 2
b11110101110010001100101110101001 3
b100000 4
1&
b10 #
b10 +
b10 0
b100 6
#640000
0&
#650000
b1110111101100010100111100001 .
b1110111101100010100111100001 1
b11110001000010011101011000011110 2
b11001001011001000111111010100001 3
b100000 4
1&
b0 #
b0 +
b0 0
b110 6
#660000
0&
#670000
b110010010110101001110011101001 .
b110010010110101001110011101001 1
b11001101101001010110001100010110 2
b111111000101111011011100110110 3
b100000 4
1&
b10 #
b10 +
b10 0
b1000010 )
b10001111 5
b0 6
#680000
0&
#690000
b11000100001010010101010101111110 .
b11000100001010010101010101111110 1
b111011110101101010101010000001 2
b11101111010110101010101000000100 3
b100000 4
1&
b0 #
b0 +
b0 0
b10 6
#700000
0&
#710000
b10110000001010011000111011001001 3
b100000 4
b10000101001010101010111111011 .
b10000101001010101010111111011 1
b11101111010110101010101000000100 2
1&
b100 6
#720000
0&
#730000
b1000110010101000100101001011000 .
b1000110010101000100101001011000 1
b10111001101010111011010110100111 2
b11100110101011101101011010011100 3
b100000 4
1&
b1 #
b1 +
b1 0
b110 6
#740000
0&
#750000
b10100000100100000111110111010 .
b10100000100100000111110111010 1
b11101011111011011111000001000101 2
b10100110001101011111101001111010 3
b100000 4
1&
b10 #
b10 +
b10 0
b1110010 )
b10000111 5
b0 6
#760000
0&
#770000
b1011101000010110001100000110010 .
b1011101000010110001100000110010 1
b10100010111101001110011111001101 2
b10000010010100011010010001011010 3
b100000 4
1&
b0 #
b0 +
b0 0
b10 6
#780000
0&
#790000
b1110000111011010111110101111100 .
b1110000111011010111110101111100 1
b10001111000100101000001010000011 2
b111000100010110001011110111011 3
b100000 4
1&
b11 #
b11 +
b11 0
b100 6
#800000
0&
#810000
b11000011101101011111010111110011 .
b11000011101101011111010111110011 1
b111100010010100000101000001100 2
b11111000101010100001001101011110 3
b100000 4
1&
b1 #
b1 +
b1 0
b110 6
#820000
0&
#830000
b11100110011010010101000011001111 3
b100000 4
b111010101011110110010100001 .
b111010101011110110010100001 1
b11111000101010100001001101011110 2
1&
b1100101 )
b1111111 5
b0 6
#840000
0&
#850000
b10011101011001000101111010001011 3
b100000 4
b11001100101101010111100110000 .
b11001100101101010111100110000 1
b11100110011010010101000011001111 2
1&
b10 6
#860000
0&
#870000
b1101111110110001000011110101101 .
b1101111110110001000011110101101 1
b10010000001001110111100001010010 2
b1001101110111101100011110010001 3
b100000 4
1&
b10 #
b10 +
b10 0
b100 6
#880000
0&
#890000
b10111111011000100001111010110111 .
b10111111011000100001111010110111 1
b1000000100111011110000101001000 2
b1111001101001010001111111001 3
b100000 4
1&
b1 #
b1 +
b1 0
b110 6
#900000
0&
#910000
b110101010100001011010010001010 3
b100000 4
b11110000110010110101110000000110 .
b11110000110010110101110000000110 1
b1111001101001010001111111001 2
1&
b1100001 )
b1110111 5
b0 6
#920000
0&
#930000
b11000011001011010111000000011011 .
b11000011001011010111000000011011 1
b111100110100101000111111100100 2
b11110011010010100011111110010000 3
b100000 4
1&
b0 #
b0 +
b0 0
b10 6
#940000
0&
#950000
b1000011101001101110111011000 .
b1000011101001101110111011000 1
b11110111100010110010001000100111 2
b11010111101011101011001111110010 3
b100000 4
1&
b10 #
b10 +
b10 0
b100 6
#960000
0&
#970000
b100101000100100110101011010100 .
b100101000100100110101011010100 1
b11011010111011011001010100101011 2
b1101111011101110100100100011011 3
b100000 4
1&
b1 #
b1 +
b1 0
b110 6
#980000
0&
#990000
b10010100010010011010101101010011 .
b10010100010010011010101101010011 1
b1101011101101100101010010101100 2
b10100111010110110110100111011110 3
b100000 4
1&
b11 #
b11 +
b11 0
b1101011 )
b1101111 5
b0 6
#1000000
0&
#1010000
b1010001001001101010110101001111 .
b1010001001001101010110101001111 1
b10101110110110010101001010110000 2
b10110110001001100110110000011001 3
b100000 4
1&
b10 #
b10 +
b10 0
b10 6
#1020000
0&
#1030000
b11010101110110101001011010111101 3
b100000 4
b1001001110110011001001111100110 .
b1001001110110011001001111100110 1
b10110110001001100110110000011001 2
1&
b100 6
#1040000
0&
#1050000
b100111011001100100111110011011 .
b100111011001100100111110011011 1
b11011000100110011011000001100100 2
b1100110101001111101110000100111 3
b100000 4
1&
b1 #
b1 +
b1 0
b110 6
#1060000
0&
#1070000
b10010100000110110000010100000001 .
b10010100000110110000010100000001 1
b1101011111001001111101011111110 2
b10101111100100111110101111111000 3
b100000 4
1&
b10 #
b10 +
b10 0
b1100110 )
b1100111 5
b0 6
#1080000
0&
#1090000
b1011101001011110011001011011110 .
b1011101001011110011001011011110 1
b10100010110100001100110100100001 2
b10001011010000110011010010000100 3
b100000 4
1&
b1 #
b1 +
b1 0
b10 6
#1100000
0&
#1110000
b1111001111111111110110110100010 .
b1111001111111111110110110100010 1
b10000110000000000001001001011101 2
b10101010000110110111110101101 3
b100000 4
1&
b10 #
b10 +
b10 0
b100 6
#1120000
0&
#1130000
b11100111111111111011011010001011 .
b11100111111111111011011010001011 1
b11000000000000100100101110100 2
b1101001100000110001111010111110 3
b100000 4
1&
b1 #
b1 +
b1 0
b110 6
#1140000
0&
#1150000
b10101011010011110101110000100001 3
b100000 4
b10010110011111001110000101000001 .
b10010110011111001110000101000001 1
b1101001100000110001111010111110 2
1&
b1100001 )
b1011111 5
b0 6
#1160000
0&
#1170000
b1011101001100101001100010110000 .
b1011101001100101001100010110000 1
b10100010110011010110011101001111 2
b10000010101101111010011001010010 3
b100000 4
1&
b0 #
b0 +
b0 0
b10 6
#1180000
0&
#1190000
b1111001100010010100010000011010 .
b1111001100010010100010000011010 1
b10000110011101101011101111100101 2
b10100100110011100100101001101 3
b100000 4
1&
b10 #
b10 +
b10 0
b100 6
#1200000
0&
#1210000
b11100110001001010001000001101011 .
b11100110001001010001000001101011 1
b11001110110101110111110010100 2
b1101110111010011000010100111110 3
b100000 4
1&
b1 #
b1 +
b1 0
b110 6
#1220000
0&
#1230000
b10010101110101110110011101110110 .
b10010101110101110110011101110110 1
b1101010001010001001100010001001 2
b10100001001000000101100101001010 3
b100000 4
1&
b11 #
b11 +
b11 0
b1110011 )
b1010111 5
b0 6
#1240000
0&
#1250000
b1010011100111001000000001101100 .
b1010011100111001000000001101100 1
b10101100011000110111111110010011 2
b10111000000011111100010100100010 3
b100000 4
1&
b0 #
b0 +
b0 0
b10 6
#1260000
0&
#1270000
b1001010101100110001110000000100 .
b1001010101100110001110000000100 1
b10110101010011001110001111111011 2
b11010001111100101001001001011011 3
b100000 4
1&
b11 #
b11 +
b11 0
b100 6
#1280000
0&
#1290000
b101010110011000111000000010011 .
b101010110011000111000000010011 1
b11010101001100111000111111101100 2
b1010000000011110010001000000111 3
b100000 4
1&
b1 #
b1 +
b1 0
b110 6
#1300000
0&
#1310000
b10100110011100101110011010010110 .
b10100110011100101110011010010110 1
b1011001100011010001100101101001 2
b1100010111101010111100000010011 3
b100000 4
1&
b0 #
b0 +
b0 0
b1110100 )
b1001111 5
b0 6
#1320000
0&
#1330000
b10010100100010001011110010000010 .
b10010100100010001011110010000010 1
b1101011011101110100001101111101 2
b10100000100111100010101100101101 3
b100000 4
1&
b1 #
b1 +
b1 0
b10 6
#1340000
0&
#1350000
b1011011101000001100100101100101 .
b1011011101000001100100101100101 1
b10100100010111110011011010011010 2
b10010101101111011100011111011111 3
b100000 4
1&
b11 #
b11 +
b11 0
b100 6
#1360000
0&
#1370000
b1101110100000110010010110010111 .
b1101110100000110010010110010111 1
b10010001011111001101101001101000 2
b1000101111100110110100110100000 3
b100000 4
1&
b1 #
b1 +
b1 0
b110 6
#1380000
0&
#1390000
b10110011100011101010110100110001 .
b10110011100011101010110100110001 1
b1001100011100010101001011001110 2
b110101000001000101011010001111 3
b100000 4
1&
b0 #
b0 +
b0 0
b100000 )
b1000111 5
b0 6
#1400000
0&
#1410000
b11010100000100010101101000111100 3
b100000 4
b11001010111110111010100101110000 .
b11001010111110111010100101110000 1
b110101000001000101011010001111 2
1&
b10 6
#1420000
0&
#1430000
b101111001011111011100001110100 .
b101111001011111011100001110100 1
b11010000110100000100011110001011 2
b1001010110000110010010101000010 3
b100000 4
1&
b10 #
b10 +
b10 0
b100 6
#1440000
0&
#1450000
b10110001111111011100011100001010 .
b10110001111111011100011100001010 1
b1001110000000100011100011110101 2
b111100110010011111111001100011 3
b100000 4
1&
b0 #
b0 +
b0 0
b110 6
#1460000
0&
#1470000
b11110011001001111111100110001100 3
b100000 4
b11000011001101100000000110011100 .
b11000011001101100000000110011100 1
b111100110010011111111001100011 2
1&
b1110100 )
b111111 5
b0 6
#1480000
0&
#1490000
b101010110100011110100011101 .
b101010110100011110100011101 1
b11111010101001011100001011100010 2
b11101110010101100001011000111111 3
b100000 4
1&
b1 #
b1 +
b1 0
b10 6
#1500000
0&
#1510000
b10101011010001111010001110111 .
b10101011010001111010001110111 1
b11101010100101110000101110001000 2
b10101010010111000010111000100000 3
b100000 4
1&
b11 #
b11 +
b11 0
b100 6
#1520000
0&
#1530000
b1010001011000101100110001101000 .
b1010001011000101100110001101000 1
b10101110100111010011001110010111 2
b10111010011101001100111001011100 3
b100000 4
1&
b1 #
b1 +
b1 0
b110 6
#1540000
0&
#1550000
b11101001110100110011100101110000 3
b100000 4
b1000101100010110011000110100011 .
b1000101100010110011000110100011 1
b10111010011101001100111001011100 2
1&
b1101001 )
b110111 5
b0 6
#1560000
0&
#1570000
b11011011011111110000001010110 .
b11011011011111110000001010110 1
b11100100100100000001111110101001 2
b10011011110000100100010111001010 3
b100000 4
1&
b10 #
b10 +
b10 0
b10 6
#1580000
0&
#1590000
b1100010010010100011000111110001 3
b100000 4
b1100100001111011011101000110101 .
b1100100001111011011101000110101 1
b10011011110000100100010111001010 2
1&
b100 6
#1600000
0&
#1610000
b10010000111101101110100011010111 .
b10010000111101101110100011010111 1
b1101111000010010001011100101000 2
b10110001011001110111101001111001 3
b100000 4
1&
b1 #
b1 +
b1 0
b110 6
#1620000
0&
#1630000
b11000101100111011110100111100100 3
b100000 4
b1001110100110001000010110000110 .
b1001110100110001000010110000110 1
b10110001011001110111101001111001 2
1&
b1101101 )
b101111 5
b0 6
#1640000
0&
#1650000
b111110101000110000101110101100 .
b111110101000110000101110101100 1
b11000001010111001111010001010011 2
b101011100111101000101001100 3
b100000 4
1&
b11 #
b11 +
b11 0
b10 6
#1660000
0&
#1670000
b11110011000011100001010111011101 .
b11110011000011100001010111011101 1
b1100111100011110101000100010 2
b110111000001101011010100111111 3
b100000 4
1&
b10 #
b10 +
b10 0
b100 6
#1680000
0&
#1690000
b11000101101110100110110000011001 .
b11000101101110100110110000011001 1
b111010010001011001001111100110 2
b11100000100101000111010011110110 3
b100000 4
1&
b1 #
b1 +
b1 0
b110 6
#1700000
0&
#1710000
b10000110100100001100111001101111 3
b100000 4
b11111011010111000101100001001 .
b11111011010111000101100001001 1
b11100000100101000111010011110110 2
1&
b1100101 )
b100111 5
b0 6
#1720000
0&
#1730000
b11010010000110011100110111100 3
b100000 4
b1111001011011110011000110010000 .
b1111001011011110011000110010000 1
b10000110100100001100111001101111 2
1&
b10 6
#1740000
0&
#1750000
b11101000111111111110000010011010 .
b11101000111111111110000010011010 1
b10111000000000001111101100101 2
b1011000110000010110000000100011 3
b100000 4
1&
b10 #
b10 +
b10 0
b100 6
#1760000
0&
#1770000
b10101010011111011011100100000101 .
b10101010011111011011100100000101 1
b1010101100000100100011011111010 2
b1011011010010100011110100110001 3
b100000 4
1&
b1 #
b1 +
b1 0
b110 6
#1780000
0&
#1790000
b10101001111101101110010000010111 .
b10101001111101101110010000010111 1
b1010110000010010001101111101000 2
b1011000001001000110111110100000 3
b100000 4
1&
b10 #
b10 +
b10 0
b11010 )
b11111 5
b0 6
#1800000
0&
#1810000
b1100000100100011011111010000000 3
b100000 4
b10100111110110111001000001011111 .
b10100111110110111001000001011111 1
b1011000001001000110111110100000 2
1&
b10 6
#1820000
0&
#1830000
b10010010001011010110011110100110 .
b10010010001011010110011110100110 1
b1101101110100101001100001011001 2
b10111010000010010100011110111101 3
b100000 4
1&
b1 #
b1 +
b1 0
b100 6
#1840000
0&
#1850000
b1001100011101001000001100101100 .
b1001100011101001000001100101100 1
b10110011100010110111110011010011 2
b11000111101011111100100000100010 3
b100000 4
1&
b0 #
b0 +
b0 0
b110 6
#1860000
0&
#1870000
b111100100100010010101001101010 .
b111100100100010010101001101010 1
b11000011011011101101010110010101 2
b100001110010110110100111010 3
b100000 4
1&
b10 #
b10 +
b10 0
b111010 )
b10111 5
b0 6
#1880000
0&
#1890000
b10100001001001010100101011111 3
b100000 4
b11111011110001101001001011000101 .
b11111011110001101001001011000101 1
b100001110010110110100111010 2
1&
b10 6
#1900000
0&
#1910000
b11100010010110010110110111001110 .
b11100010010110010110110111001110 1
b11101101001101001001000110001 2
b1111011110110010110111000011101 3
b100000 4
1&
b11 #
b11 +
b11 0
b100 6
#1920000
0&
#1930000
b10001001011001011011011100111011 .
b10001001011001011011011100111011 1
b1110110100110100100100011000100 2
b11011110101010000011111010100111 3
b100000 4
1&
b0 #
b0 +
b0 0
b110 6
#1940000
0&
#1950000
b1110111111000111101110001000101 3
b100000 4
b100001010101111100000101011000 .
b100001010101111100000101011000 1
b11011110101010000011111010100111 2
1&
b11001100 )
b1111 5
b0 6
#1960000
0&
#1970000
b10000101010111110000010101100011 .
b10000101010111110000010101100011 1
b1111010101000001111101010011100 2
b11100011000000011101000100011110 3
b100000 4
1&
b11 #
b11 +
b11 0
b10 6
#1980000
0&
#1990000
b10001101111010000100000111000 .
b10001101111010000100000111000 1
b11101110010000101111011111000111 2
b10110100010010001111100111000101 3
b100000 4
1&
b0 #
b0 +
b0 0
b100 6
#2000000
0&
#2010000
b1000110111101000010000011100011 .
b1000110111101000010000011100011 1
b10111001000010111101111100011100 2
b11100000111011100110000111000111 3
b100000 4
1&
b11 #
b11 +
b11 0
b110 6
#2020000
0&
#2030000
b10110100100111010010101010110 .
b10110100100111010010101010110 1
b11101001011011000101101010101001 2
b10101100001100110101000111001010 3
b100000 4
1&
b10 #
b10 +
b10 0
b10110010 )
b111 5
b0 6
#2040000
0&
#2050000
b1010111000011011011001110000010 .
b1010111000011011011001110000010 1
b10101000111100100100110001111101 2
b10101010010010110000101010011010 3
b100000 4
1&
b0 #
b0 +
b0 0
b10 6
#2060000
0&
#2070000
b1011000111101111101001110111100 .
b1011000111101111101001110111100 1
b10100111000010000010110001000011 2
b10011000111000011010110010111011 3
b100000 4
1&
b11 #
b11 +
b11 0
b100 6
#2080000
0&
#2090000
b1101110100111000110100000101010 .
b1101110100111000110100000101010 1
b10010001011000111001011111010101 2
b1001000110011010111100110001101 3
b100000 4
1&
b10 #
b10 +
b10 0
b110 6
#2100000
0&
#2110000
1!
1"
1-
1&
0$
b11111111111111111111111111111111 5
b1000 6
#2120000
0&
#2130000
b11110110011111011100010010010010 3
b100000 4
b0 .
b0 1
b11111111111111111111111111111111 2
1&
